<svg width="262" height="143.5" viewBox="0 0 524 287" fill="none" xmlns="http://www.w3.org/2000/svg">
<g filter="url(#filter0_d)">
<rect x="12" y="8" width="500" height="263" fill="white"/>
</g>
<rect x="12" y="58" width="500" height="10" fill="#DBDBDB"/>
<rect x="12" y="118" width="500" height="1" fill="#DBDBDB"/>
<rect x="12" y="168" width="500" height="1" fill="#DBDBDB"/>
<rect x="12" y="218" width="500" height="1" fill="#DBDBDB"/>
<circle cx="36.5" cy="34.5" r="12.5" fill="#C4C4C4"/>
<path d="M29.1569 35.198L28.5129 33.742L28.2189 35.198L27.2669 40H25.7129L27.8409 29.71H28.0089L30.8369 35.268L31.6769 37.13L32.5169 35.268L35.2889 29.71H35.4429L37.6549 40H36.1149L35.0789 35.198L34.7709 33.742L34.2109 35.198L31.7189 40H31.6349L29.1569 35.198ZM39.0344 29.71H41.5124C43.5844 29.71 45.031 30.2 45.8524 31.18C46.683 32.16 47.0984 33.3267 47.0984 34.68C47.0984 35.6227 46.9211 36.4953 46.5664 37.298C46.2117 38.0913 45.6237 38.74 44.8024 39.244C43.9904 39.748 42.9217 40 41.5964 40H39.0344V29.71ZM41.7644 38.614C43.0524 38.614 43.9857 38.25 44.5644 37.522C45.1524 36.7847 45.4464 35.8607 45.4464 34.75C45.4464 33.6673 45.1524 32.7853 44.5644 32.104C43.9764 31.4227 43.043 31.082 41.7644 31.082H40.6024V38.614H41.7644Z" fill="white"/>
<path d="M63.738 35.198L63.094 33.742L62.8 35.198L61.848 40H60.294L62.422 29.71H62.59L65.418 35.268L66.258 37.13L67.098 35.268L69.87 29.71H70.024L72.236 40H70.696L69.66 35.198L69.352 33.742L68.792 35.198L66.3 40H66.216L63.738 35.198ZM76.3594 40.14C75.7808 40.14 75.2441 40.0047 74.7494 39.734C74.2641 39.454 73.8721 39.062 73.5734 38.558C73.2841 38.0447 73.1394 37.4473 73.1394 36.766C73.1394 36.094 73.2654 35.506 73.5174 35.002C73.7788 34.498 74.1474 34.106 74.6234 33.826C75.0994 33.546 75.6594 33.406 76.3034 33.406C76.6768 33.406 77.0268 33.4713 77.3534 33.602C77.6801 33.7327 77.9554 33.896 78.1794 34.092C78.4034 34.2787 78.5528 34.4653 78.6274 34.652L78.6554 33.574H80.0974V40H78.6694L78.6414 38.866C78.4828 39.202 78.1934 39.5007 77.7734 39.762C77.3534 40.014 76.8821 40.14 76.3594 40.14ZM76.6114 38.88C77.1434 38.88 77.5914 38.698 77.9554 38.334C78.3194 37.9607 78.5014 37.4753 78.5014 36.878V36.78C78.5014 36.3787 78.4174 36.0193 78.2494 35.702C78.0814 35.3847 77.8528 35.1373 77.5634 34.96C77.2741 34.7827 76.9568 34.694 76.6114 34.694C76.0141 34.694 75.5521 34.89 75.2254 35.282C74.8988 35.6647 74.7354 36.164 74.7354 36.78C74.7354 37.4053 74.8941 37.914 75.2114 38.306C75.5381 38.6887 76.0048 38.88 76.6114 38.88ZM82.0887 33.574H83.6007V34.834C83.7501 34.4047 83.9927 34.0593 84.3287 33.798C84.6647 33.5367 85.0474 33.406 85.4767 33.406C85.7754 33.406 85.9807 33.434 86.0927 33.49L85.8827 35.016C85.7987 34.96 85.6167 34.932 85.3367 34.932C84.8981 34.932 84.4967 35.072 84.1327 35.352C83.7781 35.632 83.6007 36.08 83.6007 36.696V40H82.0887V33.574ZM87.274 33.574H88.842V40H87.274V33.574ZM88.044 32.37C87.7546 32.37 87.512 32.272 87.316 32.076C87.12 31.88 87.022 31.6373 87.022 31.348C87.022 31.0867 87.12 30.8627 87.316 30.676C87.512 30.4893 87.7546 30.396 88.044 30.396C88.324 30.396 88.562 30.4893 88.758 30.676C88.954 30.8627 89.052 31.0867 89.052 31.348C89.052 31.6373 88.954 31.88 88.758 32.076C88.5713 32.272 88.3333 32.37 88.044 32.37ZM93.9734 40.14C93.2081 40.14 92.5687 39.9907 92.0554 39.692C91.5421 39.384 91.1641 38.978 90.9214 38.474C90.6787 37.9607 90.5574 37.4007 90.5574 36.794C90.5574 36.1127 90.6974 35.5153 90.9774 35.002C91.2667 34.4887 91.6634 34.0967 92.1674 33.826C92.6714 33.546 93.2407 33.406 93.8754 33.406C94.8647 33.406 95.5974 33.6813 96.0734 34.232C96.5587 34.7733 96.8014 35.5387 96.8014 36.528C96.8014 36.78 96.7874 37.0413 96.7594 37.312H92.1394C92.2421 37.8813 92.4427 38.292 92.7414 38.544C93.0494 38.796 93.4741 38.922 94.0154 38.922C94.4634 38.922 94.8321 38.8847 95.1214 38.81C95.4107 38.7353 95.6767 38.6327 95.9194 38.502L96.3814 39.58C96.1481 39.7293 95.8307 39.86 95.4294 39.972C95.0281 40.084 94.5427 40.14 93.9734 40.14ZM95.3314 36.262C95.3407 35.6833 95.2147 35.2773 94.9534 35.044C94.6921 34.8013 94.3187 34.68 93.8334 34.68C92.8534 34.68 92.2887 35.2073 92.1394 36.262H95.3314ZM101.916 29.71H104.394C106.466 29.71 107.913 30.2 108.734 31.18C109.565 32.16 109.98 33.3267 109.98 34.68C109.98 35.6227 109.803 36.4953 109.448 37.298C109.094 38.0913 108.506 38.74 107.684 39.244C106.872 39.748 105.804 40 104.478 40H101.916V29.71ZM104.646 38.614C105.934 38.614 106.868 38.25 107.446 37.522C108.034 36.7847 108.328 35.8607 108.328 34.75C108.328 33.6673 108.034 32.7853 107.446 32.104C106.858 31.4227 105.925 31.082 104.646 31.082H103.484V38.614H104.646ZM114.453 40.14C113.79 40.14 113.202 39.9907 112.689 39.692C112.176 39.3933 111.779 38.9873 111.499 38.474C111.219 37.9607 111.079 37.3913 111.079 36.766C111.079 36.15 111.214 35.5853 111.485 35.072C111.765 34.5587 112.162 34.1527 112.675 33.854C113.188 33.5553 113.781 33.406 114.453 33.406C115.125 33.406 115.713 33.5553 116.217 33.854C116.73 34.1527 117.122 34.5587 117.393 35.072C117.673 35.5853 117.813 36.15 117.813 36.766C117.813 37.3913 117.673 37.9607 117.393 38.474C117.113 38.9873 116.716 39.3933 116.203 39.692C115.699 39.9907 115.116 40.14 114.453 40.14ZM114.495 38.908C115.036 38.908 115.461 38.7073 115.769 38.306C116.086 37.9047 116.245 37.4007 116.245 36.794C116.245 36.1873 116.077 35.6787 115.741 35.268C115.405 34.848 114.962 34.638 114.411 34.638C113.879 34.638 113.45 34.8433 113.123 35.254C112.806 35.6647 112.647 36.178 112.647 36.794C112.647 37.3913 112.82 37.8953 113.165 38.306C113.51 38.7073 113.954 38.908 114.495 38.908ZM122.466 40.14C121.7 40.14 121.061 39.9907 120.548 39.692C120.034 39.384 119.656 38.978 119.414 38.474C119.171 37.9607 119.05 37.4007 119.05 36.794C119.05 36.1127 119.19 35.5153 119.47 35.002C119.759 34.4887 120.156 34.0967 120.66 33.826C121.164 33.546 121.733 33.406 122.368 33.406C123.357 33.406 124.09 33.6813 124.566 34.232C125.051 34.7733 125.294 35.5387 125.294 36.528C125.294 36.78 125.28 37.0413 125.252 37.312H120.632C120.734 37.8813 120.935 38.292 121.234 38.544C121.542 38.796 121.966 38.922 122.508 38.922C122.956 38.922 123.324 38.8847 123.614 38.81C123.903 38.7353 124.169 38.6327 124.412 38.502L124.874 39.58C124.64 39.7293 124.323 39.86 123.922 39.972C123.52 40.084 123.035 40.14 122.466 40.14ZM123.824 36.262C123.833 35.6833 123.707 35.2773 123.446 35.044C123.184 34.8013 122.811 34.68 122.326 34.68C121.346 34.68 120.781 35.2073 120.632 36.262H123.824Z" fill="black"/>
<path d="M403.434 34.5664H408.619V39.4004C408.338 39.7051 407.975 40.0039 407.529 40.2969C407.084 40.5781 406.568 40.8125 405.982 41C405.408 41.1758 404.775 41.2637 404.084 41.2637C403.193 41.2637 402.373 41.1055 401.623 40.7891C400.873 40.4609 400.217 40.0156 399.654 39.4531C399.092 38.8906 398.652 38.2402 398.336 37.502C398.031 36.752 397.879 35.9551 397.879 35.1113C397.879 34.2676 398.031 33.4766 398.336 32.7383C398.652 31.9883 399.092 31.332 399.654 30.7695C400.217 30.207 400.873 29.7676 401.623 29.4512C402.373 29.123 403.193 28.959 404.084 28.959C404.939 28.959 405.637 29.0762 406.176 29.3105C406.727 29.5449 407.207 29.8496 407.617 30.2246V31.9648C407.359 31.7773 407.066 31.5723 406.738 31.3496C406.422 31.127 406.047 30.9336 405.613 30.7695C405.191 30.5938 404.682 30.5059 404.084 30.5059C403.205 30.5059 402.42 30.7051 401.729 31.1035C401.037 31.502 400.492 32.0527 400.094 32.7559C399.695 33.4473 399.496 34.2324 399.496 35.1113C399.496 35.9902 399.695 36.7754 400.094 37.4668C400.492 38.1582 401.037 38.709 401.729 39.1191C402.42 39.5176 403.205 39.7168 404.084 39.7168C404.682 39.7168 405.162 39.6582 405.525 39.541C405.889 39.4121 406.176 39.2715 406.387 39.1191C406.598 38.9551 406.768 38.8203 406.896 38.7148L406.914 35.9727H403.434V34.5664ZM412.258 32.2109V33.9688C412.598 33.3828 413.008 32.9141 413.488 32.5625C413.969 32.2109 414.461 32.0352 414.965 32.0352C415.305 32.0352 415.609 32.0938 415.879 32.2109V33.8809C415.504 33.6582 415.129 33.5469 414.754 33.5469C414.156 33.5469 413.67 33.7578 413.295 34.1797C412.932 34.6016 412.586 35.1055 412.258 35.6914V41H410.816V32.2109H412.258ZM421.697 32.0352C422.588 32.0352 423.379 32.2461 424.07 32.668C424.762 33.0898 425.301 33.6523 425.688 34.3555C426.086 35.0586 426.285 35.8262 426.285 36.6582C426.285 37.4902 426.086 38.2578 425.688 38.9609C425.301 39.6523 424.762 40.209 424.07 40.6309C423.379 41.0527 422.588 41.2637 421.697 41.2637C420.807 41.2637 420.016 41.0527 419.324 40.6309C418.633 40.209 418.088 39.6523 417.689 38.9609C417.303 38.2578 417.109 37.4902 417.109 36.6582C417.109 35.8262 417.303 35.0586 417.689 34.3555C418.088 33.6523 418.633 33.0898 419.324 32.668C420.016 32.2461 420.807 32.0352 421.697 32.0352ZM421.697 33.4414C421.076 33.4414 420.531 33.5938 420.062 33.8984C419.594 34.1914 419.23 34.584 418.973 35.0762C418.727 35.5566 418.604 36.084 418.604 36.6582C418.604 37.2207 418.727 37.748 418.973 38.2402C419.23 38.7207 419.594 39.1133 420.062 39.418C420.531 39.7109 421.076 39.8574 421.697 39.8574C422.33 39.8574 422.875 39.7109 423.332 39.418C423.801 39.1133 424.158 38.7207 424.404 38.2402C424.662 37.748 424.791 37.2207 424.791 36.6582C424.791 36.084 424.662 35.5566 424.404 35.0762C424.158 34.584 423.801 34.1914 423.332 33.8984C422.875 33.5938 422.33 33.4414 421.697 33.4414ZM432.631 32.0352C433.275 32.0352 433.832 32.1406 434.301 32.3516C434.77 32.5508 435.092 32.7324 435.268 32.8965V34.3555C434.939 34.1094 434.564 33.8984 434.143 33.7227C433.721 33.5352 433.217 33.4414 432.631 33.4414C432.01 33.4414 431.465 33.5938 430.996 33.8984C430.527 34.1914 430.164 34.584 429.906 35.0762C429.66 35.5566 429.537 36.084 429.537 36.6582C429.537 37.2207 429.66 37.748 429.906 38.2402C430.164 38.7207 430.527 39.1133 430.996 39.418C431.465 39.7109 432.01 39.8574 432.631 39.8574C433.217 39.8574 433.721 39.7695 434.143 39.5938C434.564 39.4062 434.939 39.1895 435.268 38.9434V40.4023C435.092 40.5781 434.77 40.7656 434.301 40.9648C433.832 41.1641 433.275 41.2637 432.631 41.2637C431.74 41.2637 430.949 41.0527 430.258 40.6309C429.566 40.209 429.021 39.6523 428.623 38.9609C428.236 38.2578 428.043 37.4902 428.043 36.6582C428.043 35.8262 428.236 35.0586 428.623 34.3555C429.021 33.6523 429.566 33.0898 430.258 32.668C430.949 32.2461 431.74 32.0352 432.631 32.0352ZM441.262 32.0352C442.164 32.0352 442.914 32.2227 443.512 32.5977C444.109 32.9727 444.555 33.4824 444.848 34.127C445.152 34.7715 445.305 35.498 445.305 36.3066V37.168H438.555C438.625 37.6602 438.795 38.1113 439.064 38.5215C439.334 38.9316 439.686 39.2598 440.119 39.5059C440.553 39.7402 441.051 39.8574 441.613 39.8574C442.246 39.8574 442.838 39.6992 443.389 39.3828C443.939 39.0547 444.402 38.6973 444.777 38.3105L444.76 39.875C444.596 40.0742 444.35 40.2852 444.021 40.5078C443.705 40.7188 443.336 40.8945 442.914 41.0352C442.504 41.1875 442.07 41.2637 441.613 41.2637C440.723 41.2637 439.932 41.0527 439.24 40.6309C438.549 40.209 438.004 39.6523 437.605 38.9609C437.219 38.2578 437.025 37.4902 437.025 36.6582C437.025 35.8262 437.207 35.0586 437.57 34.3555C437.934 33.6523 438.432 33.0898 439.064 32.668C439.709 32.2461 440.441 32.0352 441.262 32.0352ZM441.262 33.4414C440.535 33.4414 439.938 33.6875 439.469 34.1797C439 34.6602 438.707 35.2461 438.59 35.9375H443.881C443.822 35.3633 443.658 34.8945 443.389 34.5312C443.131 34.168 442.814 33.8984 442.439 33.7227C442.064 33.5352 441.672 33.4414 441.262 33.4414ZM449.119 32.2109V33.9688C449.459 33.3828 449.869 32.9141 450.35 32.5625C450.83 32.2109 451.322 32.0352 451.826 32.0352C452.166 32.0352 452.471 32.0938 452.74 32.2109V33.8809C452.365 33.6582 451.99 33.5469 451.615 33.5469C451.018 33.5469 450.531 33.7578 450.156 34.1797C449.793 34.6016 449.447 35.1055 449.119 35.6914V41H447.678V32.2109H449.119ZM455.078 32.2109L458.154 38.6797L461.143 32.2109H462.865L456.396 45.2188H454.727L457.24 40.4727L453.355 32.2109H455.078ZM471.918 29.2227V39.5059H478.404V41H470.336V29.2227H471.918ZM482.482 27.9922C482.822 27.9922 483.104 28.1152 483.326 28.3613C483.561 28.5957 483.678 28.8711 483.678 29.1875C483.678 29.4922 483.561 29.7676 483.326 30.0137C483.104 30.2598 482.822 30.3828 482.482 30.3828C482.143 30.3828 481.855 30.2598 481.621 30.0137C481.398 29.7676 481.287 29.4922 481.287 29.1875C481.287 28.8711 481.398 28.5957 481.621 28.3613C481.855 28.1152 482.143 27.9922 482.482 27.9922ZM483.379 32.2109V41H481.938V33.5645H480.549V32.2109H483.379ZM489.109 32.0352C489.625 32.0352 490.105 32.1113 490.551 32.2637C490.996 32.4043 491.318 32.5508 491.518 32.7031V34.25C491.271 34.0625 490.938 33.8809 490.516 33.7051C490.094 33.5293 489.66 33.4414 489.215 33.4414C488.664 33.4414 488.248 33.5703 487.967 33.8281C487.697 34.0859 487.562 34.3555 487.562 34.6367C487.562 34.8594 487.639 35.0879 487.791 35.3223C487.955 35.5449 488.236 35.7266 488.635 35.8672L490.111 36.3945C490.686 36.5938 491.113 36.8809 491.395 37.2559C491.676 37.6309 491.816 38.0703 491.816 38.5742C491.816 39.0664 491.676 39.5176 491.395 39.9277C491.125 40.3379 490.744 40.666 490.252 40.9121C489.771 41.1465 489.215 41.2637 488.582 41.2637C488.242 41.2637 487.885 41.2168 487.51 41.123C487.146 41.041 486.818 40.9414 486.525 40.8242C486.232 40.6953 486.016 40.584 485.875 40.4902V38.9434C486.039 39.0605 486.268 39.1953 486.561 39.3477C486.865 39.4883 487.188 39.6113 487.527 39.7168C487.867 39.8105 488.184 39.8574 488.477 39.8574C489.027 39.8574 489.461 39.7344 489.777 39.4883C490.105 39.2422 490.27 38.9375 490.27 38.5742C490.27 38.293 490.158 38.0703 489.936 37.9062C489.725 37.7422 489.414 37.584 489.004 37.4316L487.703 36.957C487.023 36.6992 486.572 36.377 486.35 35.9902C486.127 35.5918 486.016 35.1406 486.016 34.6367C486.016 33.8867 486.297 33.2656 486.859 32.7734C487.422 32.2812 488.172 32.0352 489.109 32.0352ZM496.439 29.6797V32.2109H499.006V33.5645H496.439V38.7148C496.439 39.0781 496.533 39.3652 496.721 39.5762C496.908 39.7871 497.195 39.8926 497.582 39.8926C497.934 39.8926 498.227 39.8516 498.461 39.7695C498.695 39.6758 498.9 39.5762 499.076 39.4707V40.6484C498.842 40.8359 498.59 40.9824 498.32 41.0879C498.062 41.2051 497.711 41.2637 497.266 41.2637C496.516 41.2637 495.947 41.041 495.561 40.5957C495.186 40.1387 494.998 39.5352 494.998 38.7852V33.5645H493.311V33.1426C493.885 32.8848 494.365 32.4629 494.752 31.877C495.139 31.2793 495.479 30.5469 495.771 29.6797H496.439Z" fill="black"/>
<path d="M29.738 95.198L29.094 93.742L28.8 95.198L27.848 100H26.294L28.422 89.71H28.59L31.418 95.268L32.258 97.13L33.098 95.268L35.87 89.71H36.024L38.236 100H36.696L35.66 95.198L35.352 93.742L34.792 95.198L32.3 100H32.216L29.738 95.198ZM39.6294 93.574H41.1974V100H39.6294V93.574ZM40.3994 92.37C40.1101 92.37 39.8674 92.272 39.6714 92.076C39.4754 91.88 39.3774 91.6373 39.3774 91.348C39.3774 91.0867 39.4754 90.8627 39.6714 90.676C39.8674 90.4893 40.1101 90.396 40.3994 90.396C40.6794 90.396 40.9174 90.4893 41.1134 90.676C41.3094 90.8627 41.4074 91.0867 41.4074 91.348C41.4074 91.6373 41.3094 91.88 41.1134 92.076C40.9268 92.272 40.6888 92.37 40.3994 92.37ZM43.4169 89.71H44.9149V100H43.4169V89.71ZM52.847 100H51.069L49.767 97.9L49.403 97.186L48.563 98.096V100H47.107V89.71H48.549V95.352L48.521 96.444L50.971 93.574H52.833L50.411 96.262L52.847 100Z" fill="black"/>
<path d="M165.894 100.14C164.877 100.14 163.967 99.9067 163.164 99.44C162.361 98.9733 161.731 98.334 161.274 97.522C160.826 96.7007 160.602 95.7813 160.602 94.764C160.602 93.7747 160.831 92.8833 161.288 92.09C161.745 91.2967 162.38 90.676 163.192 90.228C164.004 89.78 164.919 89.556 165.936 89.556C166.487 89.556 166.981 89.6073 167.42 89.71C167.868 89.8033 168.232 89.9153 168.512 90.046C168.792 90.1673 168.983 90.2747 169.086 90.368L168.47 91.684C167.891 91.2173 167.037 90.984 165.908 90.984C165.161 90.984 164.513 91.1473 163.962 91.474C163.411 91.8007 162.991 92.244 162.702 92.804C162.413 93.364 162.268 93.9893 162.268 94.68C162.268 95.464 162.422 96.164 162.73 96.78C163.047 97.396 163.481 97.8767 164.032 98.222C164.592 98.558 165.222 98.726 165.922 98.726C166.361 98.726 166.781 98.6747 167.182 98.572C167.583 98.46 167.924 98.2873 168.204 98.054V96.066H166.09V94.624H169.758V98.656C169.422 99.076 168.913 99.4307 168.232 99.72C167.56 100 166.781 100.14 165.894 100.14ZM174.408 100.14C173.745 100.14 173.157 99.9907 172.644 99.692C172.131 99.3933 171.734 98.9873 171.454 98.474C171.174 97.9607 171.034 97.3913 171.034 96.766C171.034 96.15 171.169 95.5853 171.44 95.072C171.72 94.5587 172.117 94.1527 172.63 93.854C173.143 93.5553 173.736 93.406 174.408 93.406C175.08 93.406 175.668 93.5553 176.172 93.854C176.685 94.1527 177.077 94.5587 177.348 95.072C177.628 95.5853 177.768 96.15 177.768 96.766C177.768 97.3913 177.628 97.9607 177.348 98.474C177.068 98.9873 176.671 99.3933 176.158 99.692C175.654 99.9907 175.071 100.14 174.408 100.14ZM174.45 98.908C174.991 98.908 175.416 98.7073 175.724 98.306C176.041 97.9047 176.2 97.4007 176.2 96.794C176.2 96.1873 176.032 95.6787 175.696 95.268C175.36 94.848 174.917 94.638 174.366 94.638C173.834 94.638 173.405 94.8433 173.078 95.254C172.761 95.6647 172.602 96.178 172.602 96.794C172.602 97.3913 172.775 97.8953 173.12 98.306C173.465 98.7073 173.909 98.908 174.45 98.908ZM182.379 100.14C181.716 100.14 181.128 99.9907 180.615 99.692C180.101 99.3933 179.705 98.9873 179.425 98.474C179.145 97.9607 179.005 97.3913 179.005 96.766C179.005 96.15 179.14 95.5853 179.411 95.072C179.691 94.5587 180.087 94.1527 180.601 93.854C181.114 93.5553 181.707 93.406 182.379 93.406C183.051 93.406 183.639 93.5553 184.143 93.854C184.656 94.1527 185.048 94.5587 185.319 95.072C185.599 95.5853 185.739 96.15 185.739 96.766C185.739 97.3913 185.599 97.9607 185.319 98.474C185.039 98.9873 184.642 99.3933 184.129 99.692C183.625 99.9907 183.041 100.14 182.379 100.14ZM182.421 98.908C182.962 98.908 183.387 98.7073 183.695 98.306C184.012 97.9047 184.171 97.4007 184.171 96.794C184.171 96.1873 184.003 95.6787 183.667 95.268C183.331 94.848 182.887 94.638 182.337 94.638C181.805 94.638 181.375 94.8433 181.049 95.254C180.731 95.6647 180.573 96.178 180.573 96.794C180.573 97.3913 180.745 97.8953 181.091 98.306C181.436 98.7073 181.879 98.908 182.421 98.908ZM190.195 100.14C189.617 100.14 189.08 100.005 188.585 99.734C188.1 99.454 187.708 99.062 187.409 98.558C187.12 98.0447 186.975 97.4473 186.975 96.766C186.975 95.7487 187.26 94.9367 187.829 94.33C188.399 93.714 189.169 93.406 190.139 93.406C190.681 93.406 191.175 93.5413 191.623 93.812C192.071 94.0733 192.375 94.3907 192.533 94.764L192.463 93.672V89.71H193.947V100H192.505L192.477 98.866C192.319 99.202 192.029 99.5007 191.609 99.762C191.189 100.014 190.718 100.14 190.195 100.14ZM190.447 98.866C190.979 98.866 191.427 98.684 191.791 98.32C192.155 97.9467 192.337 97.4613 192.337 96.864V96.766C192.337 96.3647 192.253 96.0053 192.085 95.688C191.917 95.3707 191.689 95.1233 191.399 94.946C191.11 94.7687 190.793 94.68 190.447 94.68C189.85 94.68 189.388 94.876 189.061 95.268C188.735 95.6507 188.571 96.15 188.571 96.766C188.571 97.3913 188.73 97.9 189.047 98.292C189.374 98.6747 189.841 98.866 190.447 98.866ZM198.165 95.282L198.515 94.778L196.961 94.82H195.855V93.574H200.853L197.955 98.306L197.605 98.838L199.117 98.782L200.741 98.754V100H195.239L198.165 95.282ZM202.395 93.574H203.963V100H202.395V93.574ZM203.165 92.37C202.876 92.37 202.633 92.272 202.437 92.076C202.241 91.88 202.143 91.6373 202.143 91.348C202.143 91.0867 202.241 90.8627 202.437 90.676C202.633 90.4893 202.876 90.396 203.165 90.396C203.445 90.396 203.683 90.4893 203.879 90.676C204.075 90.8627 204.173 91.0867 204.173 91.348C204.173 91.6373 204.075 91.88 203.879 92.076C203.692 92.272 203.454 92.37 203.165 92.37ZM209.095 100.14C208.329 100.14 207.69 99.9907 207.177 99.692C206.663 99.384 206.285 98.978 206.043 98.474C205.8 97.9607 205.679 97.4007 205.679 96.794C205.679 96.1127 205.819 95.5153 206.099 95.002C206.388 94.4887 206.785 94.0967 207.289 93.826C207.793 93.546 208.362 93.406 208.997 93.406C209.986 93.406 210.719 93.6813 211.195 94.232C211.68 94.7733 211.923 95.5387 211.923 96.528C211.923 96.78 211.909 97.0413 211.881 97.312H207.261C207.363 97.8813 207.564 98.292 207.863 98.544C208.171 98.796 208.595 98.922 209.137 98.922C209.585 98.922 209.953 98.8847 210.243 98.81C210.532 98.7353 210.798 98.6327 211.041 98.502L211.503 99.58C211.269 99.7293 210.952 99.86 210.551 99.972C210.149 100.084 209.664 100.14 209.095 100.14ZM210.453 96.262C210.462 95.6833 210.336 95.2773 210.075 95.044C209.813 94.8013 209.44 94.68 208.955 94.68C207.975 94.68 207.41 95.2073 207.261 96.262H210.453ZM215.72 100.14C215.272 100.14 214.805 100.084 214.32 99.972C213.844 99.8507 213.503 99.7107 213.298 99.552L213.802 98.362C214.362 98.754 215.001 98.95 215.72 98.95C216.438 98.95 216.798 98.74 216.798 98.32C216.798 98.1333 216.723 97.9887 216.574 97.886C216.424 97.7833 216.158 97.662 215.776 97.522L215.244 97.326C214.684 97.102 214.24 96.836 213.914 96.528C213.587 96.2107 213.424 95.7953 213.424 95.282C213.424 94.694 213.652 94.2367 214.11 93.91C214.576 93.574 215.197 93.406 215.972 93.406C216.354 93.406 216.728 93.448 217.092 93.532C217.465 93.616 217.75 93.7233 217.946 93.854L217.4 95.058C217.278 94.9367 217.082 94.834 216.812 94.75C216.55 94.6567 216.256 94.61 215.93 94.61C215.267 94.61 214.936 94.8107 214.936 95.212C214.936 95.436 215.024 95.6087 215.202 95.73C215.379 95.842 215.668 95.968 216.07 96.108C216.107 96.1173 216.252 96.1687 216.504 96.262C217.101 96.4953 217.544 96.7613 217.834 97.06C218.123 97.3587 218.268 97.7413 218.268 98.208C218.268 98.8427 218.025 99.3233 217.54 99.65C217.064 99.9767 216.457 100.14 215.72 100.14Z" fill="black"/>
<path d="M264.858 89.696L269.814 100H268.008L267.126 97.984H262.408L261.526 100H259.776L264.704 89.696H264.858ZM264.158 94.078L263.038 96.57H266.51L265.404 94.092L264.802 92.678H264.774L264.158 94.078ZM270.69 93.574H272.258V100H270.69V93.574ZM271.46 92.37C271.171 92.37 270.928 92.272 270.732 92.076C270.536 91.88 270.438 91.6373 270.438 91.348C270.438 91.0867 270.536 90.8627 270.732 90.676C270.928 90.4893 271.171 90.396 271.46 90.396C271.74 90.396 271.978 90.4893 272.174 90.676C272.37 90.8627 272.468 91.0867 272.468 91.348C272.468 91.6373 272.37 91.88 272.174 92.076C271.987 92.272 271.749 92.37 271.46 92.37ZM276.563 100.14C276.115 100.14 275.649 100.084 275.163 99.972C274.687 99.8507 274.347 99.7107 274.141 99.552L274.645 98.362C275.205 98.754 275.845 98.95 276.563 98.95C277.282 98.95 277.641 98.74 277.641 98.32C277.641 98.1333 277.567 97.9887 277.417 97.886C277.268 97.7833 277.002 97.662 276.619 97.522L276.087 97.326C275.527 97.102 275.084 96.836 274.757 96.528C274.431 96.2107 274.267 95.7953 274.267 95.282C274.267 94.694 274.496 94.2367 274.953 93.91C275.42 93.574 276.041 93.406 276.815 93.406C277.198 93.406 277.571 93.448 277.935 93.532C278.309 93.616 278.593 93.7233 278.789 93.854L278.243 95.058C278.122 94.9367 277.926 94.834 277.655 94.75C277.394 94.6567 277.1 94.61 276.773 94.61C276.111 94.61 275.779 94.8107 275.779 95.212C275.779 95.436 275.868 95.6087 276.045 95.73C276.223 95.842 276.512 95.968 276.913 96.108C276.951 96.1173 277.095 96.1687 277.347 96.262C277.945 96.4953 278.388 96.7613 278.677 97.06C278.967 97.3587 279.111 97.7413 279.111 98.208C279.111 98.8427 278.869 99.3233 278.383 99.65C277.907 99.9767 277.301 100.14 276.563 100.14ZM280.808 89.71H282.306V100H280.808V89.71ZM287.466 100.14C286.7 100.14 286.061 99.9907 285.548 99.692C285.034 99.384 284.656 98.978 284.414 98.474C284.171 97.9607 284.05 97.4007 284.05 96.794C284.05 96.1127 284.19 95.5153 284.47 95.002C284.759 94.4887 285.156 94.0967 285.66 93.826C286.164 93.546 286.733 93.406 287.368 93.406C288.357 93.406 289.09 93.6813 289.566 94.232C290.051 94.7733 290.294 95.5387 290.294 96.528C290.294 96.78 290.28 97.0413 290.252 97.312H285.632C285.734 97.8813 285.935 98.292 286.234 98.544C286.542 98.796 286.966 98.922 287.508 98.922C287.956 98.922 288.324 98.8847 288.614 98.81C288.903 98.7353 289.169 98.6327 289.412 98.502L289.874 99.58C289.64 99.7293 289.323 99.86 288.922 99.972C288.52 100.084 288.035 100.14 287.466 100.14ZM288.824 96.262C288.833 95.6833 288.707 95.2773 288.446 95.044C288.184 94.8013 287.811 94.68 287.326 94.68C286.346 94.68 285.781 95.2073 285.632 96.262H288.824ZM297.13 97.522H295.66V96.206H297.368L297.816 93.714H296.192V92.412H298.068L298.516 89.892H299.958L299.496 92.412H301.652L302.114 89.892H303.542L303.08 92.412H304.592V93.714H302.842L302.38 96.206H304.06V97.522H302.156L301.708 99.972H300.266L300.714 97.522H298.572L298.124 99.972H296.682L297.13 97.522ZM300.952 96.206L301.414 93.714H299.258L298.81 96.206H300.952ZM310.446 100.21C309.792 100.21 309.195 100.079 308.654 99.818C308.112 99.5567 307.683 99.188 307.366 98.712C307.048 98.2267 306.89 97.6667 306.89 97.032C306.89 96.3693 307.044 95.8233 307.352 95.394C307.669 94.9647 308.07 94.6473 308.556 94.442C308.192 94.2273 307.893 93.938 307.66 93.574C307.436 93.2007 307.324 92.7853 307.324 92.328C307.324 91.768 307.459 91.278 307.73 90.858C308 90.438 308.374 90.116 308.85 89.892C309.326 89.6587 309.858 89.542 310.446 89.542C311.034 89.542 311.566 89.6587 312.042 89.892C312.518 90.116 312.891 90.438 313.162 90.858C313.432 91.2687 313.568 91.7493 313.568 92.3C313.568 92.804 313.446 93.238 313.204 93.602C312.97 93.9567 312.662 94.2413 312.28 94.456C312.774 94.6707 313.185 94.9927 313.512 95.422C313.838 95.842 314.002 96.3787 314.002 97.032C314.002 97.6667 313.843 98.2267 313.526 98.712C313.208 99.188 312.774 99.5567 312.224 99.818C311.682 100.079 311.09 100.21 310.446 100.21ZM310.446 93.798C310.866 93.798 311.225 93.6487 311.524 93.35C311.822 93.042 311.972 92.678 311.972 92.258C311.972 91.8193 311.832 91.4647 311.552 91.194C311.272 90.914 310.903 90.774 310.446 90.774C309.979 90.774 309.606 90.914 309.326 91.194C309.046 91.4647 308.906 91.8193 308.906 92.258C308.906 92.6873 309.05 93.0513 309.34 93.35C309.629 93.6487 309.998 93.798 310.446 93.798ZM310.446 98.838C311.034 98.838 311.505 98.6653 311.86 98.32C312.224 97.9653 312.406 97.522 312.406 96.99C312.406 96.458 312.219 96.0193 311.846 95.674C311.472 95.3193 311.006 95.142 310.446 95.142C309.876 95.142 309.405 95.3147 309.032 95.66C308.658 95.996 308.472 96.4393 308.472 96.99C308.472 97.522 308.649 97.9653 309.004 98.32C309.368 98.6653 309.848 98.838 310.446 98.838Z" fill="black"/>
<path d="M363.24 100.15C362.32 100.15 361.643 99.7967 361.21 99.09C360.777 98.3833 360.56 97.4633 360.56 96.33C360.56 95.1633 360.77 94.24 361.19 93.56C361.61 92.8733 362.293 92.53 363.24 92.53C365.02 92.53 365.91 93.7967 365.91 96.33C365.91 97.4833 365.693 98.41 365.26 99.11C364.827 99.8033 364.153 100.15 363.24 100.15ZM363.24 99.13C363.787 99.13 364.163 98.87 364.37 98.35C364.583 97.8233 364.69 97.15 364.69 96.33C364.69 95.47 364.587 94.79 364.38 94.29C364.173 93.79 363.793 93.54 363.24 93.54C362.687 93.54 362.303 93.79 362.09 94.29C361.883 94.79 361.78 95.47 361.78 96.33C361.78 98.1967 362.267 99.13 363.24 99.13ZM369.375 91.73H370.345L368.185 100.92H367.215L369.375 91.73ZM373.854 100.15C373.427 100.15 372.997 100.09 372.564 99.97C372.137 99.8433 371.827 99.6833 371.634 99.49L372.104 98.54C372.304 98.7 372.557 98.84 372.864 98.96C373.171 99.0733 373.484 99.13 373.804 99.13C374.944 99.13 375.514 98.6667 375.514 97.74C375.514 97.3467 375.357 97.03 375.044 96.79C374.737 96.55 374.321 96.43 373.794 96.43C373.427 96.43 373.117 96.45 372.864 96.49L374.704 93.63H371.944V92.65H376.694L374.614 95.62C375.034 95.6333 375.404 95.7333 375.724 95.92C376.051 96.1067 376.301 96.3533 376.474 96.66C376.647 96.96 376.734 97.2933 376.734 97.66C376.734 98.14 376.621 98.57 376.394 98.95C376.167 99.3233 375.837 99.6167 375.404 99.83C374.971 100.043 374.454 100.15 373.854 100.15Z" fill="black"/>
<rect x="427" y="82" width="70" height="25" rx="3" fill="#4054BE"/>
<path d="M442.635 91.457L445.691 98H444.637L443.953 96.4375H440.887L440.193 98H439.139L442.195 91.457H442.635ZM442.43 92.9414L441.248 95.6074H443.592L442.43 92.9414ZM451.033 90.9688V98H450.232V97.1699C450.063 97.4303 449.832 97.6582 449.539 97.8535C449.253 98.0488 448.924 98.1465 448.553 98.1465C448.136 98.1465 447.755 98.0423 447.41 97.834C447.065 97.6191 446.788 97.3229 446.58 96.9453C446.378 96.5677 446.277 96.1315 446.277 95.6367C446.277 95.0964 446.378 94.6309 446.58 94.2402C446.788 93.8496 447.072 93.5501 447.43 93.3418C447.788 93.127 448.188 93.0195 448.631 93.0195C448.911 93.0195 449.194 93.0879 449.48 93.2246C449.773 93.3548 450.024 93.5371 450.232 93.7715V90.9688H451.033ZM448.777 93.8203C448.426 93.8203 448.126 93.9082 447.879 94.084C447.632 94.2533 447.439 94.4746 447.303 94.748C447.173 95.0215 447.107 95.3177 447.107 95.6367C447.107 95.9492 447.173 96.2389 447.303 96.5059C447.433 96.7663 447.615 96.9746 447.85 97.1309C448.09 97.2871 448.367 97.3652 448.68 97.3652C448.979 97.3652 449.246 97.2871 449.48 97.1309C449.715 96.9746 449.9 96.7598 450.037 96.4863C450.174 96.2064 450.239 95.8939 450.232 95.5488L450.223 94.6113C450.021 94.3574 449.803 94.1621 449.568 94.0254C449.34 93.8887 449.077 93.8203 448.777 93.8203ZM457.107 90.9688V98H456.307V97.1699C456.137 97.4303 455.906 97.6582 455.613 97.8535C455.327 98.0488 454.998 98.1465 454.627 98.1465C454.21 98.1465 453.829 98.0423 453.484 97.834C453.139 97.6191 452.863 97.3229 452.654 96.9453C452.452 96.5677 452.352 96.1315 452.352 95.6367C452.352 95.0964 452.452 94.6309 452.654 94.2402C452.863 93.8496 453.146 93.5501 453.504 93.3418C453.862 93.127 454.262 93.0195 454.705 93.0195C454.985 93.0195 455.268 93.0879 455.555 93.2246C455.848 93.3548 456.098 93.5371 456.307 93.7715V90.9688H457.107ZM454.852 93.8203C454.5 93.8203 454.201 93.9082 453.953 94.084C453.706 94.2533 453.514 94.4746 453.377 94.748C453.247 95.0215 453.182 95.3177 453.182 95.6367C453.182 95.9492 453.247 96.2389 453.377 96.5059C453.507 96.7663 453.689 96.9746 453.924 97.1309C454.165 97.2871 454.441 97.3652 454.754 97.3652C455.053 97.3652 455.32 97.2871 455.555 97.1309C455.789 96.9746 455.975 96.7598 456.111 96.4863C456.248 96.2064 456.313 95.8939 456.307 95.5488L456.297 94.6113C456.095 94.3574 455.877 94.1621 455.643 94.0254C455.415 93.8887 455.151 93.8203 454.852 93.8203ZM465.027 97.1699V98H461.941V97.1699H463.045V92.2871H461.941V91.457H465.027V92.2871H463.924V97.1699H465.027ZM468.279 91.7109V93.1172H469.705V93.8691H468.279V96.7305C468.279 96.9323 468.331 97.0918 468.436 97.209C468.54 97.3262 468.699 97.3848 468.914 97.3848C469.109 97.3848 469.272 97.362 469.402 97.3164C469.533 97.2643 469.646 97.209 469.744 97.1504V97.8047C469.614 97.9089 469.474 97.9902 469.324 98.0488C469.181 98.1139 468.986 98.1465 468.738 98.1465C468.322 98.1465 468.006 98.0228 467.791 97.7754C467.583 97.5215 467.479 97.1862 467.479 96.7695V93.8691H466.541V93.6348C466.86 93.4915 467.127 93.2572 467.342 92.9316C467.557 92.5996 467.745 92.1927 467.908 91.7109H468.279ZM473.172 93.0195C473.673 93.0195 474.09 93.1237 474.422 93.332C474.754 93.5404 475.001 93.8236 475.164 94.1816C475.333 94.5397 475.418 94.9434 475.418 95.3926V95.8711H471.668C471.707 96.1445 471.801 96.3952 471.951 96.623C472.101 96.8509 472.296 97.0332 472.537 97.1699C472.778 97.3001 473.055 97.3652 473.367 97.3652C473.719 97.3652 474.048 97.2773 474.354 97.1016C474.66 96.9193 474.917 96.7207 475.125 96.5059L475.115 97.375C475.024 97.4857 474.887 97.6029 474.705 97.7266C474.529 97.8438 474.324 97.9414 474.09 98.0195C473.862 98.1042 473.621 98.1465 473.367 98.1465C472.872 98.1465 472.433 98.0293 472.049 97.7949C471.665 97.5605 471.362 97.2513 471.141 96.8672C470.926 96.4766 470.818 96.0501 470.818 95.5879C470.818 95.1257 470.919 94.6992 471.121 94.3086C471.323 93.918 471.6 93.6055 471.951 93.3711C472.309 93.1367 472.716 93.0195 473.172 93.0195ZM473.172 93.8008C472.768 93.8008 472.436 93.9375 472.176 94.2109C471.915 94.4779 471.753 94.8034 471.688 95.1875H474.627C474.594 94.8685 474.503 94.6081 474.354 94.4062C474.21 94.2044 474.035 94.0547 473.826 93.957C473.618 93.8529 473.4 93.8008 473.172 93.8008ZM477.537 93.1172V93.7422C477.693 93.5664 477.892 93.4036 478.133 93.2539C478.38 93.0977 478.67 93.0195 479.002 93.0195C479.354 93.0195 479.682 93.1042 479.988 93.2734C480.294 93.4362 480.529 93.6836 480.691 94.0156C480.919 93.7422 481.167 93.5078 481.434 93.3125C481.701 93.1172 482.013 93.0195 482.371 93.0195C482.703 93.0195 483.012 93.0944 483.299 93.2441C483.592 93.3874 483.826 93.6087 484.002 93.9082C484.184 94.2012 484.275 94.5723 484.275 95.0215V98H483.475L483.465 95.0996C483.465 94.6764 483.354 94.3542 483.133 94.1328C482.918 93.9115 482.618 93.8008 482.234 93.8008C481.954 93.8008 481.71 93.8887 481.502 94.0645C481.294 94.2402 481.095 94.4453 480.906 94.6797V98H480.105L480.096 95.0996C480.096 94.6764 479.985 94.3542 479.764 94.1328C479.549 93.9115 479.249 93.8008 478.865 93.8008C478.598 93.8008 478.354 93.8789 478.133 94.0352C477.918 94.1914 477.719 94.3802 477.537 94.6016V98H476.736V93.1172H477.537Z" fill="white"/>
<path d="M27.092 139.71H29.71C31.1847 139.71 32.1647 139.957 32.65 140.452C33.1353 140.947 33.378 141.544 33.378 142.244C33.378 142.711 33.2753 143.154 33.07 143.574C32.8647 143.985 32.538 144.293 32.09 144.498C32.7527 144.666 33.238 144.96 33.546 145.38C33.8633 145.8 34.022 146.295 34.022 146.864C34.022 147.461 33.9287 147.984 33.742 148.432C33.5553 148.88 33.168 149.253 32.58 149.552C31.992 149.851 31.1427 150 30.032 150H27.092V139.71ZM29.962 144.078C30.6247 144.078 31.096 143.919 31.376 143.602C31.656 143.275 31.796 142.865 31.796 142.37C31.796 141.483 31.1613 141.04 29.892 141.04H28.632V144.078H29.962ZM30.242 148.684C31.0913 148.684 31.6607 148.516 31.95 148.18C32.2487 147.835 32.398 147.401 32.398 146.878C32.398 146.383 32.23 146.001 31.894 145.73C31.558 145.459 31.0493 145.324 30.368 145.324H28.632V148.684H30.242ZM38.5997 150.14C38.021 150.14 37.4843 150.005 36.9897 149.734C36.5043 149.454 36.1123 149.062 35.8137 148.558C35.5243 148.045 35.3797 147.447 35.3797 146.766C35.3797 146.094 35.5057 145.506 35.7577 145.002C36.019 144.498 36.3877 144.106 36.8637 143.826C37.3397 143.546 37.8997 143.406 38.5437 143.406C38.917 143.406 39.267 143.471 39.5937 143.602C39.9203 143.733 40.1957 143.896 40.4197 144.092C40.6437 144.279 40.793 144.465 40.8677 144.652L40.8957 143.574H42.3377V150H40.9097L40.8817 148.866C40.723 149.202 40.4337 149.501 40.0137 149.762C39.5937 150.014 39.1223 150.14 38.5997 150.14ZM38.8517 148.88C39.3837 148.88 39.8317 148.698 40.1957 148.334C40.5597 147.961 40.7417 147.475 40.7417 146.878V146.78C40.7417 146.379 40.6577 146.019 40.4897 145.702C40.3217 145.385 40.093 145.137 39.8037 144.96C39.5143 144.783 39.197 144.694 38.8517 144.694C38.2543 144.694 37.7923 144.89 37.4657 145.282C37.139 145.665 36.9757 146.164 36.9757 146.78C36.9757 147.405 37.1343 147.914 37.4517 148.306C37.7783 148.689 38.245 148.88 38.8517 148.88ZM44.371 143.574H45.855L45.869 144.75C46.0463 144.358 46.3263 144.036 46.709 143.784C47.0916 143.532 47.5396 143.406 48.053 143.406C48.7156 143.406 49.2243 143.546 49.579 143.826C49.9336 144.097 50.1716 144.479 50.293 144.974C50.4143 145.469 50.475 146.113 50.475 146.906V150H48.963V146.948C48.963 146.136 48.8836 145.553 48.725 145.198C48.5663 144.834 48.2396 144.652 47.745 144.652C47.465 144.652 47.1803 144.741 46.891 144.918C46.6016 145.086 46.359 145.333 46.163 145.66C45.9763 145.987 45.883 146.369 45.883 146.808V150H44.371V143.574ZM55.2657 150.14C54.687 150.14 54.1504 150.005 53.6557 149.734C53.1704 149.454 52.7784 149.062 52.4797 148.558C52.1904 148.045 52.0457 147.447 52.0457 146.766C52.0457 146.094 52.1717 145.506 52.4237 145.002C52.685 144.498 53.0537 144.106 53.5297 143.826C54.0057 143.546 54.5657 143.406 55.2097 143.406C55.583 143.406 55.933 143.471 56.2597 143.602C56.5864 143.733 56.8617 143.896 57.0857 144.092C57.3097 144.279 57.459 144.465 57.5337 144.652L57.5617 143.574H59.0037V150H57.5757L57.5477 148.866C57.389 149.202 57.0997 149.501 56.6797 149.762C56.2597 150.014 55.7884 150.14 55.2657 150.14ZM55.5177 148.88C56.0497 148.88 56.4977 148.698 56.8617 148.334C57.2257 147.961 57.4077 147.475 57.4077 146.878V146.78C57.4077 146.379 57.3237 146.019 57.1557 145.702C56.9877 145.385 56.759 145.137 56.4697 144.96C56.1804 144.783 55.863 144.694 55.5177 144.694C54.9204 144.694 54.4584 144.89 54.1317 145.282C53.805 145.665 53.6417 146.164 53.6417 146.78C53.6417 147.405 53.8004 147.914 54.1177 148.306C54.4444 148.689 54.911 148.88 55.5177 148.88ZM61.037 143.574H62.521L62.535 144.75C62.7123 144.358 62.9923 144.036 63.375 143.784C63.7576 143.532 64.2056 143.406 64.719 143.406C65.3816 143.406 65.8903 143.546 66.245 143.826C66.5996 144.097 66.8376 144.479 66.959 144.974C67.0803 145.469 67.141 146.113 67.141 146.906V150H65.629V146.948C65.629 146.136 65.5496 145.553 65.391 145.198C65.2323 144.834 64.9056 144.652 64.411 144.652C64.131 144.652 63.8463 144.741 63.557 144.918C63.2676 145.086 63.025 145.333 62.829 145.66C62.6423 145.987 62.549 146.369 62.549 146.808V150H61.037V143.574ZM71.9317 150.14C71.353 150.14 70.8164 150.005 70.3217 149.734C69.8364 149.454 69.4444 149.062 69.1457 148.558C68.8564 148.045 68.7117 147.447 68.7117 146.766C68.7117 146.094 68.8377 145.506 69.0897 145.002C69.351 144.498 69.7197 144.106 70.1957 143.826C70.6717 143.546 71.2317 143.406 71.8757 143.406C72.249 143.406 72.599 143.471 72.9257 143.602C73.2524 143.733 73.5277 143.896 73.7517 144.092C73.9757 144.279 74.125 144.465 74.1997 144.652L74.2277 143.574H75.6697V150H74.2417L74.2137 148.866C74.055 149.202 73.7657 149.501 73.3457 149.762C72.9257 150.014 72.4544 150.14 71.9317 150.14ZM72.1837 148.88C72.7157 148.88 73.1637 148.698 73.5277 148.334C73.8917 147.961 74.0737 147.475 74.0737 146.878V146.78C74.0737 146.379 73.9897 146.019 73.8217 145.702C73.6537 145.385 73.425 145.137 73.1357 144.96C72.8464 144.783 72.529 144.694 72.1837 144.694C71.5864 144.694 71.1244 144.89 70.7977 145.282C70.471 145.665 70.3077 146.164 70.3077 146.78C70.3077 147.405 70.4664 147.914 70.7837 148.306C71.1104 148.689 71.577 148.88 72.1837 148.88ZM79.915 150.14C79.467 150.14 79.0003 150.084 78.515 149.972C78.039 149.851 77.6983 149.711 77.493 149.552L77.997 148.362C78.557 148.754 79.1963 148.95 79.915 148.95C80.6337 148.95 80.993 148.74 80.993 148.32C80.993 148.133 80.9183 147.989 80.769 147.886C80.6197 147.783 80.3537 147.662 79.971 147.522L79.439 147.326C78.879 147.102 78.4357 146.836 78.109 146.528C77.7823 146.211 77.619 145.795 77.619 145.282C77.619 144.694 77.8477 144.237 78.305 143.91C78.7717 143.574 79.3923 143.406 80.167 143.406C80.5497 143.406 80.923 143.448 81.287 143.532C81.6603 143.616 81.945 143.723 82.141 143.854L81.595 145.058C81.4737 144.937 81.2777 144.834 81.007 144.75C80.7457 144.657 80.4517 144.61 80.125 144.61C79.4623 144.61 79.131 144.811 79.131 145.212C79.131 145.436 79.2197 145.609 79.397 145.73C79.5743 145.842 79.8637 145.968 80.265 146.108C80.3023 146.117 80.447 146.169 80.699 146.262C81.2963 146.495 81.7397 146.761 82.029 147.06C82.3183 147.359 82.463 147.741 82.463 148.208C82.463 148.843 82.2203 149.323 81.735 149.65C81.259 149.977 80.6523 150.14 79.915 150.14Z" fill="black"/>
<path d="M165.768 150.098C164.704 150.098 163.78 149.86 162.996 149.384C162.221 148.908 161.629 148.273 161.218 147.48C160.807 146.677 160.602 145.795 160.602 144.834C160.602 143.817 160.821 142.907 161.26 142.104C161.708 141.301 162.333 140.676 163.136 140.228C163.939 139.771 164.849 139.542 165.866 139.542C166.323 139.542 166.748 139.593 167.14 139.696C167.541 139.789 167.873 139.901 168.134 140.032C168.395 140.153 168.568 140.256 168.652 140.34L167.966 141.74C167.397 141.236 166.655 140.984 165.74 140.984C165.096 140.984 164.513 141.143 163.99 141.46C163.467 141.777 163.057 142.23 162.758 142.818C162.459 143.406 162.31 144.087 162.31 144.862C162.31 145.571 162.441 146.215 162.702 146.794C162.973 147.373 163.365 147.83 163.878 148.166C164.391 148.502 165.003 148.67 165.712 148.67C166.533 148.67 167.327 148.437 168.092 147.97L168.554 149.3C168.349 149.487 167.971 149.669 167.42 149.846C166.879 150.014 166.328 150.098 165.768 150.098ZM173.082 150.14C172.419 150.14 171.831 149.991 171.318 149.692C170.804 149.393 170.408 148.987 170.128 148.474C169.848 147.961 169.708 147.391 169.708 146.766C169.708 146.15 169.843 145.585 170.114 145.072C170.394 144.559 170.79 144.153 171.304 143.854C171.817 143.555 172.41 143.406 173.082 143.406C173.754 143.406 174.342 143.555 174.846 143.854C175.359 144.153 175.751 144.559 176.022 145.072C176.302 145.585 176.442 146.15 176.442 146.766C176.442 147.391 176.302 147.961 176.022 148.474C175.742 148.987 175.345 149.393 174.832 149.692C174.328 149.991 173.744 150.14 173.082 150.14ZM173.124 148.908C173.665 148.908 174.09 148.707 174.398 148.306C174.715 147.905 174.874 147.401 174.874 146.794C174.874 146.187 174.706 145.679 174.37 145.268C174.034 144.848 173.59 144.638 173.04 144.638C172.508 144.638 172.078 144.843 171.752 145.254C171.434 145.665 171.276 146.178 171.276 146.794C171.276 147.391 171.448 147.895 171.794 148.306C172.139 148.707 172.582 148.908 173.124 148.908ZM180.269 150.14C179.821 150.14 179.354 150.084 178.869 149.972C178.393 149.851 178.052 149.711 177.847 149.552L178.351 148.362C178.911 148.754 179.55 148.95 180.269 148.95C180.987 148.95 181.347 148.74 181.347 148.32C181.347 148.133 181.272 147.989 181.123 147.886C180.973 147.783 180.707 147.662 180.325 147.522L179.793 147.326C179.233 147.102 178.789 146.836 178.463 146.528C178.136 146.211 177.973 145.795 177.973 145.282C177.973 144.694 178.201 144.237 178.659 143.91C179.125 143.574 179.746 143.406 180.521 143.406C180.903 143.406 181.277 143.448 181.641 143.532C182.014 143.616 182.299 143.723 182.495 143.854L181.949 145.058C181.827 144.937 181.631 144.834 181.361 144.75C181.099 144.657 180.805 144.61 180.479 144.61C179.816 144.61 179.485 144.811 179.485 145.212C179.485 145.436 179.573 145.609 179.751 145.73C179.928 145.842 180.217 145.968 180.619 146.108C180.656 146.117 180.801 146.169 181.053 146.262C181.65 146.495 182.093 146.761 182.383 147.06C182.672 147.359 182.817 147.741 182.817 148.208C182.817 148.843 182.574 149.323 182.089 149.65C181.613 149.977 181.006 150.14 180.269 150.14ZM184.947 144.806H183.813V143.574H184.947V140.956L186.473 140.62V143.574H187.957V144.806H186.473V150H184.947V144.806ZM191.929 145.198L191.285 143.742L190.991 145.198L190.039 150H188.485L190.613 139.71H190.781L193.609 145.268L194.449 147.13L195.289 145.268L198.061 139.71H198.215L200.427 150H198.887L197.851 145.198L197.543 143.742L196.983 145.198L194.491 150H194.407L191.929 145.198ZM204.705 150.14C204.042 150.14 203.454 149.991 202.941 149.692C202.428 149.393 202.031 148.987 201.751 148.474C201.471 147.961 201.331 147.391 201.331 146.766C201.331 146.15 201.466 145.585 201.737 145.072C202.017 144.559 202.414 144.153 202.927 143.854C203.44 143.555 204.033 143.406 204.705 143.406C205.377 143.406 205.965 143.555 206.469 143.854C206.982 144.153 207.374 144.559 207.645 145.072C207.925 145.585 208.065 146.15 208.065 146.766C208.065 147.391 207.925 147.961 207.645 148.474C207.365 148.987 206.968 149.393 206.455 149.692C205.951 149.991 205.368 150.14 204.705 150.14ZM204.747 148.908C205.288 148.908 205.713 148.707 206.021 148.306C206.338 147.905 206.497 147.401 206.497 146.794C206.497 146.187 206.329 145.679 205.993 145.268C205.657 144.848 205.214 144.638 204.663 144.638C204.131 144.638 203.702 144.843 203.375 145.254C203.058 145.665 202.899 146.178 202.899 146.794C202.899 147.391 203.072 147.895 203.417 148.306C203.762 148.707 204.206 148.908 204.747 148.908ZM209.638 143.574H211.15V144.834C211.299 144.405 211.542 144.059 211.878 143.798C212.214 143.537 212.596 143.406 213.026 143.406C213.324 143.406 213.53 143.434 213.642 143.49L213.432 145.016C213.348 144.96 213.166 144.932 212.886 144.932C212.447 144.932 212.046 145.072 211.682 145.352C211.327 145.632 211.15 146.08 211.15 146.696V150H209.638V143.574ZM217.749 150.14C216.983 150.14 216.344 149.991 215.831 149.692C215.317 149.384 214.939 148.978 214.697 148.474C214.454 147.961 214.333 147.401 214.333 146.794C214.333 146.113 214.473 145.515 214.753 145.002C215.042 144.489 215.439 144.097 215.943 143.826C216.447 143.546 217.016 143.406 217.651 143.406C218.64 143.406 219.373 143.681 219.849 144.232C220.334 144.773 220.577 145.539 220.577 146.528C220.577 146.78 220.563 147.041 220.535 147.312H215.915C216.017 147.881 216.218 148.292 216.517 148.544C216.825 148.796 217.249 148.922 217.791 148.922C218.239 148.922 218.607 148.885 218.897 148.81C219.186 148.735 219.452 148.633 219.695 148.502L220.157 149.58C219.923 149.729 219.606 149.86 219.205 149.972C218.803 150.084 218.318 150.14 217.749 150.14ZM219.107 146.262C219.116 145.683 218.99 145.277 218.729 145.044C218.467 144.801 218.094 144.68 217.609 144.68C216.629 144.68 216.064 145.207 215.915 146.262H219.107ZM224.374 150.14C223.926 150.14 223.459 150.084 222.974 149.972C222.498 149.851 222.157 149.711 221.952 149.552L222.456 148.362C223.016 148.754 223.655 148.95 224.374 148.95C225.093 148.95 225.452 148.74 225.452 148.32C225.452 148.133 225.377 147.989 225.228 147.886C225.079 147.783 224.813 147.662 224.43 147.522L223.898 147.326C223.338 147.102 222.895 146.836 222.568 146.528C222.241 146.211 222.078 145.795 222.078 145.282C222.078 144.694 222.307 144.237 222.764 143.91C223.231 143.574 223.851 143.406 224.626 143.406C225.009 143.406 225.382 143.448 225.746 143.532C226.119 143.616 226.404 143.723 226.6 143.854L226.054 145.058C225.933 144.937 225.737 144.834 225.466 144.75C225.205 144.657 224.911 144.61 224.584 144.61C223.921 144.61 223.59 144.811 223.59 145.212C223.59 145.436 223.679 145.609 223.856 145.73C224.033 145.842 224.323 145.968 224.724 146.108C224.761 146.117 224.906 146.169 225.158 146.262C225.755 146.495 226.199 146.761 226.488 147.06C226.777 147.359 226.922 147.741 226.922 148.208C226.922 148.843 226.679 149.323 226.194 149.65C225.718 149.977 225.111 150.14 224.374 150.14Z" fill="black"/>
<path d="M264.858 139.696L269.814 150H268.008L267.126 147.984H262.408L261.526 150H259.776L264.704 139.696H264.858ZM264.158 144.078L263.038 146.57H266.51L265.404 144.092L264.802 142.678H264.774L264.158 144.078ZM270.69 143.574H272.258V150H270.69V143.574ZM271.46 142.37C271.171 142.37 270.928 142.272 270.732 142.076C270.536 141.88 270.438 141.637 270.438 141.348C270.438 141.087 270.536 140.863 270.732 140.676C270.928 140.489 271.171 140.396 271.46 140.396C271.74 140.396 271.978 140.489 272.174 140.676C272.37 140.863 272.468 141.087 272.468 141.348C272.468 141.637 272.37 141.88 272.174 142.076C271.987 142.272 271.749 142.37 271.46 142.37ZM276.563 150.14C276.115 150.14 275.649 150.084 275.163 149.972C274.687 149.851 274.347 149.711 274.141 149.552L274.645 148.362C275.205 148.754 275.845 148.95 276.563 148.95C277.282 148.95 277.641 148.74 277.641 148.32C277.641 148.133 277.567 147.989 277.417 147.886C277.268 147.783 277.002 147.662 276.619 147.522L276.087 147.326C275.527 147.102 275.084 146.836 274.757 146.528C274.431 146.211 274.267 145.795 274.267 145.282C274.267 144.694 274.496 144.237 274.953 143.91C275.42 143.574 276.041 143.406 276.815 143.406C277.198 143.406 277.571 143.448 277.935 143.532C278.309 143.616 278.593 143.723 278.789 143.854L278.243 145.058C278.122 144.937 277.926 144.834 277.655 144.75C277.394 144.657 277.1 144.61 276.773 144.61C276.111 144.61 275.779 144.811 275.779 145.212C275.779 145.436 275.868 145.609 276.045 145.73C276.223 145.842 276.512 145.968 276.913 146.108C276.951 146.117 277.095 146.169 277.347 146.262C277.945 146.495 278.388 146.761 278.677 147.06C278.967 147.359 279.111 147.741 279.111 148.208C279.111 148.843 278.869 149.323 278.383 149.65C277.907 149.977 277.301 150.14 276.563 150.14ZM280.808 139.71H282.306V150H280.808V139.71ZM287.466 150.14C286.7 150.14 286.061 149.991 285.548 149.692C285.034 149.384 284.656 148.978 284.414 148.474C284.171 147.961 284.05 147.401 284.05 146.794C284.05 146.113 284.19 145.515 284.47 145.002C284.759 144.489 285.156 144.097 285.66 143.826C286.164 143.546 286.733 143.406 287.368 143.406C288.357 143.406 289.09 143.681 289.566 144.232C290.051 144.773 290.294 145.539 290.294 146.528C290.294 146.78 290.28 147.041 290.252 147.312H285.632C285.734 147.881 285.935 148.292 286.234 148.544C286.542 148.796 286.966 148.922 287.508 148.922C287.956 148.922 288.324 148.885 288.614 148.81C288.903 148.735 289.169 148.633 289.412 148.502L289.874 149.58C289.64 149.729 289.323 149.86 288.922 149.972C288.52 150.084 288.035 150.14 287.466 150.14ZM288.824 146.262C288.833 145.683 288.707 145.277 288.446 145.044C288.184 144.801 287.811 144.68 287.326 144.68C286.346 144.68 285.781 145.207 285.632 146.262H288.824ZM297.13 147.522H295.66V146.206H297.368L297.816 143.714H296.192V142.412H298.068L298.516 139.892H299.958L299.496 142.412H301.652L302.114 139.892H303.542L303.08 142.412H304.592V143.714H302.842L302.38 146.206H304.06V147.522H302.156L301.708 149.972H300.266L300.714 147.522H298.572L298.124 149.972H296.682L297.13 147.522ZM300.952 146.206L301.414 143.714H299.258L298.81 146.206H300.952ZM310.39 145.674C310.828 145.086 311.192 144.54 311.482 144.036C311.78 143.532 311.93 143.065 311.93 142.636C311.93 142.113 311.79 141.717 311.51 141.446C311.239 141.166 310.828 141.026 310.278 141.026C309.774 141.026 309.368 141.166 309.06 141.446C308.752 141.726 308.495 142.067 308.29 142.468L306.988 141.768C307.314 141.143 307.744 140.615 308.276 140.186C308.808 139.757 309.489 139.542 310.32 139.542C311.356 139.542 312.149 139.813 312.7 140.354C313.25 140.886 313.526 141.586 313.526 142.454C313.526 143.583 312.966 144.834 311.846 146.206L309.942 148.614H313.932V150H306.932L310.39 145.674ZM320.056 141.082H315.268V139.71H322.03L318.418 150H316.626L320.056 141.082Z" fill="black"/>
<path d="M363.18 146.91C363.493 146.49 363.753 146.1 363.96 145.74C364.173 145.38 364.28 145.047 364.28 144.74C364.28 144.367 364.18 144.083 363.98 143.89C363.787 143.69 363.493 143.59 363.1 143.59C362.74 143.59 362.45 143.69 362.23 143.89C362.01 144.09 361.827 144.333 361.68 144.62L360.75 144.12C360.983 143.673 361.29 143.297 361.67 142.99C362.05 142.683 362.537 142.53 363.13 142.53C363.87 142.53 364.437 142.723 364.83 143.11C365.223 143.49 365.42 143.99 365.42 144.61C365.42 145.417 365.02 146.31 364.22 147.29L362.86 149.01H365.71V150H360.71L363.18 146.91ZM369.365 141.73H370.335L368.175 150.92H367.205L369.365 141.73ZM373.844 150.15C373.418 150.15 372.988 150.09 372.554 149.97C372.128 149.843 371.818 149.683 371.624 149.49L372.094 148.54C372.294 148.7 372.548 148.84 372.854 148.96C373.161 149.073 373.474 149.13 373.794 149.13C374.934 149.13 375.504 148.667 375.504 147.74C375.504 147.347 375.348 147.03 375.034 146.79C374.728 146.55 374.311 146.43 373.784 146.43C373.418 146.43 373.108 146.45 372.854 146.49L374.694 143.63H371.934V142.65H376.684L374.604 145.62C375.024 145.633 375.394 145.733 375.714 145.92C376.041 146.107 376.291 146.353 376.464 146.66C376.638 146.96 376.724 147.293 376.724 147.66C376.724 148.14 376.611 148.57 376.384 148.95C376.158 149.323 375.828 149.617 375.394 149.83C374.961 150.043 374.444 150.15 373.844 150.15Z" fill="black"/>
<rect x="427" y="132" width="70" height="25" rx="3" fill="#4054BE"/>
<path d="M443.123 141.311C443.598 141.311 443.986 141.376 444.285 141.506C444.591 141.636 444.858 141.805 445.086 142.014V142.98C444.943 142.876 444.78 142.762 444.598 142.639C444.422 142.515 444.214 142.408 443.973 142.316C443.738 142.219 443.455 142.17 443.123 142.17C442.635 142.17 442.199 142.281 441.814 142.502C441.43 142.723 441.128 143.029 440.906 143.42C440.685 143.804 440.574 144.24 440.574 144.729C440.574 145.217 440.685 145.653 440.906 146.037C441.128 146.421 441.43 146.727 441.814 146.955C442.199 147.176 442.635 147.287 443.123 147.287C443.624 147.287 444.051 147.206 444.402 147.043C444.76 146.874 445.053 146.701 445.281 146.525V147.404C445.053 147.606 444.754 147.782 444.383 147.932C444.018 148.075 443.598 148.146 443.123 148.146C442.628 148.146 442.173 148.059 441.756 147.883C441.339 147.701 440.975 147.453 440.662 147.141C440.35 146.828 440.105 146.467 439.93 146.057C439.76 145.64 439.676 145.197 439.676 144.729C439.676 144.26 439.76 143.82 439.93 143.41C440.105 142.993 440.35 142.629 440.662 142.316C440.975 142.004 441.339 141.76 441.756 141.584C442.173 141.402 442.628 141.311 443.123 141.311ZM448.807 143.02C449.301 143.02 449.741 143.137 450.125 143.371C450.509 143.605 450.809 143.918 451.023 144.309C451.245 144.699 451.355 145.126 451.355 145.588C451.355 146.05 451.245 146.477 451.023 146.867C450.809 147.251 450.509 147.561 450.125 147.795C449.741 148.029 449.301 148.146 448.807 148.146C448.312 148.146 447.872 148.029 447.488 147.795C447.104 147.561 446.801 147.251 446.58 146.867C446.365 146.477 446.258 146.05 446.258 145.588C446.258 145.126 446.365 144.699 446.58 144.309C446.801 143.918 447.104 143.605 447.488 143.371C447.872 143.137 448.312 143.02 448.807 143.02ZM448.807 143.801C448.462 143.801 448.159 143.885 447.898 144.055C447.638 144.217 447.436 144.436 447.293 144.709C447.156 144.976 447.088 145.269 447.088 145.588C447.088 145.9 447.156 146.193 447.293 146.467C447.436 146.734 447.638 146.952 447.898 147.121C448.159 147.284 448.462 147.365 448.807 147.365C449.158 147.365 449.461 147.284 449.715 147.121C449.975 146.952 450.174 146.734 450.311 146.467C450.454 146.193 450.525 145.9 450.525 145.588C450.525 145.269 450.454 144.976 450.311 144.709C450.174 144.436 449.975 144.217 449.715 144.055C449.461 143.885 449.158 143.801 448.807 143.801ZM453.475 143.117V143.742C453.631 143.566 453.829 143.404 454.07 143.254C454.318 143.098 454.607 143.02 454.939 143.02C455.291 143.02 455.62 143.104 455.926 143.273C456.232 143.436 456.466 143.684 456.629 144.016C456.857 143.742 457.104 143.508 457.371 143.312C457.638 143.117 457.951 143.02 458.309 143.02C458.641 143.02 458.95 143.094 459.236 143.244C459.529 143.387 459.764 143.609 459.939 143.908C460.122 144.201 460.213 144.572 460.213 145.021V148H459.412L459.402 145.1C459.402 144.676 459.292 144.354 459.07 144.133C458.855 143.911 458.556 143.801 458.172 143.801C457.892 143.801 457.648 143.889 457.439 144.064C457.231 144.24 457.033 144.445 456.844 144.68V148H456.043L456.033 145.1C456.033 144.676 455.923 144.354 455.701 144.133C455.486 143.911 455.187 143.801 454.803 143.801C454.536 143.801 454.292 143.879 454.07 144.035C453.855 144.191 453.657 144.38 453.475 144.602V148H452.674V143.117H453.475ZM464.207 143.02C464.63 143.02 465.011 143.124 465.35 143.332C465.695 143.534 465.968 143.82 466.17 144.191C466.378 144.556 466.482 144.986 466.482 145.48C466.482 146.014 466.378 146.483 466.17 146.887C465.968 147.284 465.688 147.593 465.33 147.814C464.979 148.036 464.578 148.146 464.129 148.146C463.849 148.146 463.562 148.072 463.27 147.922C462.983 147.772 462.736 147.58 462.527 147.346V150.344H461.727V143.117H462.527V143.947C462.697 143.687 462.924 143.469 463.211 143.293C463.504 143.111 463.836 143.02 464.207 143.02ZM464.08 143.801C463.787 143.801 463.52 143.876 463.279 144.025C463.045 144.175 462.859 144.383 462.723 144.65C462.592 144.911 462.527 145.217 462.527 145.568L462.537 146.506C462.745 146.76 462.964 146.968 463.191 147.131C463.419 147.287 463.683 147.365 463.982 147.365C464.334 147.365 464.633 147.274 464.881 147.092C465.128 146.91 465.317 146.675 465.447 146.389C465.584 146.096 465.652 145.793 465.652 145.48C465.652 145.161 465.587 144.878 465.457 144.631C465.327 144.377 465.145 144.175 464.91 144.025C464.676 143.876 464.399 143.801 464.08 143.801ZM468.602 140.969V148H467.801V140.969H468.602ZM472.273 143.02C472.775 143.02 473.191 143.124 473.523 143.332C473.855 143.54 474.103 143.824 474.266 144.182C474.435 144.54 474.52 144.943 474.52 145.393V145.871H470.77C470.809 146.145 470.903 146.395 471.053 146.623C471.202 146.851 471.398 147.033 471.639 147.17C471.88 147.3 472.156 147.365 472.469 147.365C472.82 147.365 473.149 147.277 473.455 147.102C473.761 146.919 474.018 146.721 474.227 146.506L474.217 147.375C474.126 147.486 473.989 147.603 473.807 147.727C473.631 147.844 473.426 147.941 473.191 148.02C472.964 148.104 472.723 148.146 472.469 148.146C471.974 148.146 471.535 148.029 471.15 147.795C470.766 147.561 470.464 147.251 470.242 146.867C470.027 146.477 469.92 146.05 469.92 145.588C469.92 145.126 470.021 144.699 470.223 144.309C470.424 143.918 470.701 143.605 471.053 143.371C471.411 143.137 471.818 143.02 472.273 143.02ZM472.273 143.801C471.87 143.801 471.538 143.938 471.277 144.211C471.017 144.478 470.854 144.803 470.789 145.188H473.729C473.696 144.868 473.605 144.608 473.455 144.406C473.312 144.204 473.136 144.055 472.928 143.957C472.719 143.853 472.501 143.801 472.273 143.801ZM477.186 141.711V143.117H478.611V143.869H477.186V146.73C477.186 146.932 477.238 147.092 477.342 147.209C477.446 147.326 477.605 147.385 477.82 147.385C478.016 147.385 478.178 147.362 478.309 147.316C478.439 147.264 478.553 147.209 478.65 147.15V147.805C478.52 147.909 478.38 147.99 478.23 148.049C478.087 148.114 477.892 148.146 477.645 148.146C477.228 148.146 476.912 148.023 476.697 147.775C476.489 147.521 476.385 147.186 476.385 146.77V143.869H475.447V143.635C475.766 143.492 476.033 143.257 476.248 142.932C476.463 142.6 476.652 142.193 476.814 141.711H477.186ZM482.078 143.02C482.579 143.02 482.996 143.124 483.328 143.332C483.66 143.54 483.908 143.824 484.07 144.182C484.24 144.54 484.324 144.943 484.324 145.393V145.871H480.574C480.613 146.145 480.708 146.395 480.857 146.623C481.007 146.851 481.202 147.033 481.443 147.17C481.684 147.3 481.961 147.365 482.273 147.365C482.625 147.365 482.954 147.277 483.26 147.102C483.566 146.919 483.823 146.721 484.031 146.506L484.021 147.375C483.93 147.486 483.794 147.603 483.611 147.727C483.436 147.844 483.23 147.941 482.996 148.02C482.768 148.104 482.527 148.146 482.273 148.146C481.779 148.146 481.339 148.029 480.955 147.795C480.571 147.561 480.268 147.251 480.047 146.867C479.832 146.477 479.725 146.05 479.725 145.588C479.725 145.126 479.826 144.699 480.027 144.309C480.229 143.918 480.506 143.605 480.857 143.371C481.215 143.137 481.622 143.02 482.078 143.02ZM482.078 143.801C481.674 143.801 481.342 143.938 481.082 144.211C480.822 144.478 480.659 144.803 480.594 145.188H483.533C483.501 144.868 483.41 144.608 483.26 144.406C483.117 144.204 482.941 144.055 482.732 143.957C482.524 143.853 482.306 143.801 482.078 143.801Z" fill="white"/>
<path d="M27.092 189.71H29.36C30.6387 189.71 31.572 189.985 32.16 190.536C32.7573 191.077 33.056 191.824 33.056 192.776C33.056 193.877 32.734 194.722 32.09 195.31C31.446 195.898 30.4893 196.192 29.22 196.192H28.674V200H27.092V189.71ZM29.262 194.806C30.0833 194.806 30.6573 194.624 30.984 194.26C31.3107 193.896 31.474 193.457 31.474 192.944C31.474 192.393 31.3153 191.945 30.998 191.6C30.6807 191.255 30.1487 191.082 29.402 191.082H28.674V194.806H29.262ZM37.2598 200.14C36.6812 200.14 36.1445 200.005 35.6498 199.734C35.1645 199.454 34.7725 199.062 34.4738 198.558C34.1845 198.045 34.0398 197.447 34.0398 196.766C34.0398 196.094 34.1658 195.506 34.4178 195.002C34.6792 194.498 35.0478 194.106 35.5238 193.826C35.9998 193.546 36.5598 193.406 37.2038 193.406C37.5772 193.406 37.9272 193.471 38.2538 193.602C38.5805 193.733 38.8558 193.896 39.0798 194.092C39.3038 194.279 39.4532 194.465 39.5278 194.652L39.5558 193.574H40.9978V200H39.5698L39.5418 198.866C39.3832 199.202 39.0938 199.501 38.6738 199.762C38.2538 200.014 37.7825 200.14 37.2598 200.14ZM37.5118 198.88C38.0438 198.88 38.4918 198.698 38.8558 198.334C39.2198 197.961 39.4018 197.475 39.4018 196.878V196.78C39.4018 196.379 39.3178 196.019 39.1498 195.702C38.9818 195.385 38.7532 195.137 38.4638 194.96C38.1745 194.783 37.8572 194.694 37.5118 194.694C36.9145 194.694 36.4525 194.89 36.1258 195.282C35.7992 195.665 35.6358 196.164 35.6358 196.78C35.6358 197.405 35.7945 197.914 36.1118 198.306C36.4385 198.689 36.9052 198.88 37.5118 198.88ZM43.0591 193.574H44.5151V194.764C45.0284 193.859 45.8311 193.406 46.9231 193.406C47.8284 193.406 48.5611 193.695 49.1211 194.274C49.6811 194.843 49.9611 195.669 49.9611 196.752C49.9611 197.424 49.8211 198.017 49.5411 198.53C49.2704 199.043 48.8971 199.44 48.4211 199.72C47.9544 200 47.4318 200.14 46.8531 200.14C46.3118 200.14 45.8404 200.047 45.4391 199.86C45.0471 199.664 44.7391 199.389 44.5151 199.034L44.5291 203.402H43.0591V193.574ZM46.5031 198.866C47.1098 198.866 47.5764 198.675 47.9031 198.292C48.2298 197.9 48.3931 197.401 48.3931 196.794C48.3931 196.159 48.2298 195.655 47.9031 195.282C47.5858 194.899 47.1191 194.708 46.5031 194.708C46.1671 194.708 45.8498 194.792 45.5511 194.96C45.2618 195.119 45.0284 195.352 44.8511 195.66C44.6831 195.959 44.5991 196.309 44.5991 196.71V196.808C44.5991 197.209 44.6831 197.569 44.8511 197.886C45.0284 198.194 45.2618 198.437 45.5511 198.614C45.8404 198.782 46.1578 198.866 46.5031 198.866ZM54.614 200.14C53.8487 200.14 53.2094 199.991 52.696 199.692C52.1827 199.384 51.8047 198.978 51.562 198.474C51.3194 197.961 51.198 197.401 51.198 196.794C51.198 196.113 51.338 195.515 51.618 195.002C51.9074 194.489 52.304 194.097 52.808 193.826C53.312 193.546 53.8814 193.406 54.516 193.406C55.5054 193.406 56.238 193.681 56.714 194.232C57.1994 194.773 57.442 195.539 57.442 196.528C57.442 196.78 57.428 197.041 57.4 197.312H52.78C52.8827 197.881 53.0834 198.292 53.382 198.544C53.69 198.796 54.1147 198.922 54.656 198.922C55.104 198.922 55.4727 198.885 55.762 198.81C56.0514 198.735 56.3174 198.633 56.56 198.502L57.022 199.58C56.7887 199.729 56.4714 199.86 56.07 199.972C55.6687 200.084 55.1834 200.14 54.614 200.14ZM55.972 196.262C55.9814 195.683 55.8554 195.277 55.594 195.044C55.3327 194.801 54.9594 194.68 54.474 194.68C53.494 194.68 52.9294 195.207 52.78 196.262H55.972ZM58.9852 193.574H60.4972V194.834C60.6465 194.405 60.8892 194.059 61.2252 193.798C61.5612 193.537 61.9439 193.406 62.3732 193.406C62.6719 193.406 62.8772 193.434 62.9892 193.49L62.7792 195.016C62.6952 194.96 62.5132 194.932 62.2332 194.932C61.7945 194.932 61.3932 195.072 61.0292 195.352C60.6745 195.632 60.4972 196.08 60.4972 196.696V200H58.9852V193.574ZM69.5481 191.082H66.9161V189.71H73.7621V191.082H71.1021V200H69.5481V191.082ZM77.0486 200.14C76.3859 200.14 75.7979 199.991 75.2846 199.692C74.7713 199.393 74.3746 198.987 74.0946 198.474C73.8146 197.961 73.6746 197.391 73.6746 196.766C73.6746 196.15 73.8099 195.585 74.0806 195.072C74.3606 194.559 74.7573 194.153 75.2706 193.854C75.7839 193.555 76.3766 193.406 77.0486 193.406C77.7206 193.406 78.3086 193.555 78.8126 193.854C79.3259 194.153 79.7179 194.559 79.9886 195.072C80.2686 195.585 80.4086 196.15 80.4086 196.766C80.4086 197.391 80.2686 197.961 79.9886 198.474C79.7086 198.987 79.3119 199.393 78.7986 199.692C78.2946 199.991 77.7113 200.14 77.0486 200.14ZM77.0906 198.908C77.6319 198.908 78.0566 198.707 78.3646 198.306C78.6819 197.905 78.8406 197.401 78.8406 196.794C78.8406 196.187 78.6726 195.679 78.3366 195.268C78.0006 194.848 77.5573 194.638 77.0066 194.638C76.4746 194.638 76.0453 194.843 75.7186 195.254C75.4013 195.665 75.2426 196.178 75.2426 196.794C75.2426 197.391 75.4153 197.895 75.7606 198.306C76.1059 198.707 76.5493 198.908 77.0906 198.908ZM85.9433 196.43L84.0393 200H83.7733L81.0713 193.574H82.6953L84.0813 197.312L85.9153 193.574H85.9713L87.8193 197.284L89.2053 193.574H90.8013L88.1133 200H87.8473L85.9433 196.43ZM94.7136 200.14C93.9483 200.14 93.309 199.991 92.7956 199.692C92.2823 199.384 91.9043 198.978 91.6616 198.474C91.419 197.961 91.2976 197.401 91.2976 196.794C91.2976 196.113 91.4376 195.515 91.7176 195.002C92.007 194.489 92.4036 194.097 92.9076 193.826C93.4116 193.546 93.981 193.406 94.6156 193.406C95.605 193.406 96.3376 193.681 96.8136 194.232C97.299 194.773 97.5416 195.539 97.5416 196.528C97.5416 196.78 97.5276 197.041 97.4996 197.312H92.8796C92.9823 197.881 93.183 198.292 93.4816 198.544C93.7896 198.796 94.2143 198.922 94.7556 198.922C95.2036 198.922 95.5723 198.885 95.8616 198.81C96.151 198.735 96.417 198.633 96.6596 198.502L97.1216 199.58C96.8883 199.729 96.571 199.86 96.1696 199.972C95.7683 200.084 95.283 200.14 94.7136 200.14ZM96.0716 196.262C96.081 195.683 95.955 195.277 95.6936 195.044C95.4323 194.801 95.059 194.68 94.5736 194.68C93.5936 194.68 93.029 195.207 92.8796 196.262H96.0716ZM99.2528 189.71H100.751V200H99.2528V189.71ZM105.085 200.14C104.637 200.14 104.17 200.084 103.685 199.972C103.209 199.851 102.868 199.711 102.663 199.552L103.167 198.362C103.727 198.754 104.366 198.95 105.085 198.95C105.804 198.95 106.163 198.74 106.163 198.32C106.163 198.133 106.088 197.989 105.939 197.886C105.79 197.783 105.524 197.662 105.141 197.522L104.609 197.326C104.049 197.102 103.606 196.836 103.279 196.528C102.952 196.211 102.789 195.795 102.789 195.282C102.789 194.694 103.018 194.237 103.475 193.91C103.942 193.574 104.562 193.406 105.337 193.406C105.72 193.406 106.093 193.448 106.457 193.532C106.83 193.616 107.115 193.723 107.311 193.854L106.765 195.058C106.644 194.937 106.448 194.834 106.177 194.75C105.916 194.657 105.622 194.61 105.295 194.61C104.632 194.61 104.301 194.811 104.301 195.212C104.301 195.436 104.39 195.609 104.567 195.73C104.744 195.842 105.034 195.968 105.435 196.108C105.472 196.117 105.617 196.169 105.869 196.262C106.466 196.495 106.91 196.761 107.199 197.06C107.488 197.359 107.633 197.741 107.633 198.208C107.633 198.843 107.39 199.323 106.905 199.65C106.429 199.977 105.822 200.14 105.085 200.14Z" fill="black"/>
<path d="M163.052 191.082H160.42V189.71H167.266V191.082H164.606V200H163.052V191.082ZM170.553 200.14C169.89 200.14 169.302 199.991 168.789 199.692C168.275 199.393 167.879 198.987 167.599 198.474C167.319 197.961 167.179 197.391 167.179 196.766C167.179 196.15 167.314 195.585 167.585 195.072C167.865 194.559 168.261 194.153 168.775 193.854C169.288 193.555 169.881 193.406 170.553 193.406C171.225 193.406 171.813 193.555 172.317 193.854C172.83 194.153 173.222 194.559 173.493 195.072C173.773 195.585 173.913 196.15 173.913 196.766C173.913 197.391 173.773 197.961 173.493 198.474C173.213 198.987 172.816 199.393 172.303 199.692C171.799 199.991 171.215 200.14 170.553 200.14ZM170.595 198.908C171.136 198.908 171.561 198.707 171.869 198.306C172.186 197.905 172.345 197.401 172.345 196.794C172.345 196.187 172.177 195.679 171.841 195.268C171.505 194.848 171.061 194.638 170.511 194.638C169.979 194.638 169.549 194.843 169.223 195.254C168.905 195.665 168.747 196.178 168.747 196.794C168.747 197.391 168.919 197.895 169.265 198.306C169.61 198.707 170.053 198.908 170.595 198.908ZM179.447 196.43L177.543 200H177.277L174.575 193.574H176.199L177.585 197.312L179.419 193.574H179.475L181.323 197.284L182.709 193.574H184.305L181.617 200H181.351L179.447 196.43ZM188.218 200.14C187.452 200.14 186.813 199.991 186.3 199.692C185.786 199.384 185.408 198.978 185.166 198.474C184.923 197.961 184.802 197.401 184.802 196.794C184.802 196.113 184.942 195.515 185.222 195.002C185.511 194.489 185.908 194.097 186.412 193.826C186.916 193.546 187.485 193.406 188.12 193.406C189.109 193.406 189.842 193.681 190.318 194.232C190.803 194.773 191.046 195.539 191.046 196.528C191.046 196.78 191.032 197.041 191.004 197.312H186.384C186.486 197.881 186.687 198.292 186.986 198.544C187.294 198.796 187.718 198.922 188.26 198.922C188.708 198.922 189.076 198.885 189.366 198.81C189.655 198.735 189.921 198.633 190.164 198.502L190.626 199.58C190.392 199.729 190.075 199.86 189.674 199.972C189.272 200.084 188.787 200.14 188.218 200.14ZM189.576 196.262C189.585 195.683 189.459 195.277 189.198 195.044C188.936 194.801 188.563 194.68 188.078 194.68C187.098 194.68 186.533 195.207 186.384 196.262H189.576ZM192.757 189.71H194.255V200H192.757V189.71ZM199.415 200.14C198.649 200.14 198.01 199.991 197.497 199.692C196.983 199.384 196.605 198.978 196.363 198.474C196.12 197.961 195.999 197.401 195.999 196.794C195.999 196.113 196.139 195.515 196.419 195.002C196.708 194.489 197.105 194.097 197.609 193.826C198.113 193.546 198.682 193.406 199.317 193.406C200.306 193.406 201.039 193.681 201.515 194.232C202 194.773 202.243 195.539 202.243 196.528C202.243 196.78 202.229 197.041 202.201 197.312H197.581C197.683 197.881 197.884 198.292 198.183 198.544C198.491 198.796 198.915 198.922 199.457 198.922C199.905 198.922 200.273 198.885 200.563 198.81C200.852 198.735 201.118 198.633 201.361 198.502L201.823 199.58C201.589 199.729 201.272 199.86 200.871 199.972C200.469 200.084 199.984 200.14 199.415 200.14ZM200.773 196.262C200.782 195.683 200.656 195.277 200.395 195.044C200.133 194.801 199.76 194.68 199.275 194.68C198.295 194.68 197.73 195.207 197.581 196.262H200.773ZM203.786 193.574H205.298V194.834C205.447 194.405 205.69 194.059 206.026 193.798C206.362 193.537 206.745 193.406 207.174 193.406C207.473 193.406 207.678 193.434 207.79 193.49L207.58 195.016C207.496 194.96 207.314 194.932 207.034 194.932C206.595 194.932 206.194 195.072 205.83 195.352C205.475 195.632 205.298 196.08 205.298 196.696V200H203.786V193.574ZM211.071 200.14C210.623 200.14 210.157 200.084 209.671 199.972C209.195 199.851 208.855 199.711 208.649 199.552L209.153 198.362C209.713 198.754 210.353 198.95 211.071 198.95C211.79 198.95 212.149 198.74 212.149 198.32C212.149 198.133 212.075 197.989 211.925 197.886C211.776 197.783 211.51 197.662 211.127 197.522L210.595 197.326C210.035 197.102 209.592 196.836 209.265 196.528C208.939 196.211 208.775 195.795 208.775 195.282C208.775 194.694 209.004 194.237 209.461 193.91C209.928 193.574 210.549 193.406 211.323 193.406C211.706 193.406 212.079 193.448 212.443 193.532C212.817 193.616 213.101 193.723 213.297 193.854L212.751 195.058C212.63 194.937 212.434 194.834 212.163 194.75C211.902 194.657 211.608 194.61 211.281 194.61C210.619 194.61 210.287 194.811 210.287 195.212C210.287 195.436 210.376 195.609 210.553 195.73C210.731 195.842 211.02 195.968 211.421 196.108C211.459 196.117 211.603 196.169 211.855 196.262C212.453 196.495 212.896 196.761 213.185 197.06C213.475 197.359 213.619 197.741 213.619 198.208C213.619 198.843 213.377 199.323 212.891 199.65C212.415 199.977 211.809 200.14 211.071 200.14Z" fill="black"/>
<path d="M264.858 189.696L269.814 200H268.008L267.126 197.984H262.408L261.526 200H259.776L264.704 189.696H264.858ZM264.158 194.078L263.038 196.57H266.51L265.404 194.092L264.802 192.678H264.774L264.158 194.078ZM270.69 193.574H272.258V200H270.69V193.574ZM271.46 192.37C271.171 192.37 270.928 192.272 270.732 192.076C270.536 191.88 270.438 191.637 270.438 191.348C270.438 191.087 270.536 190.863 270.732 190.676C270.928 190.489 271.171 190.396 271.46 190.396C271.74 190.396 271.978 190.489 272.174 190.676C272.37 190.863 272.468 191.087 272.468 191.348C272.468 191.637 272.37 191.88 272.174 192.076C271.987 192.272 271.749 192.37 271.46 192.37ZM276.563 200.14C276.115 200.14 275.649 200.084 275.163 199.972C274.687 199.851 274.347 199.711 274.141 199.552L274.645 198.362C275.205 198.754 275.845 198.95 276.563 198.95C277.282 198.95 277.641 198.74 277.641 198.32C277.641 198.133 277.567 197.989 277.417 197.886C277.268 197.783 277.002 197.662 276.619 197.522L276.087 197.326C275.527 197.102 275.084 196.836 274.757 196.528C274.431 196.211 274.267 195.795 274.267 195.282C274.267 194.694 274.496 194.237 274.953 193.91C275.42 193.574 276.041 193.406 276.815 193.406C277.198 193.406 277.571 193.448 277.935 193.532C278.309 193.616 278.593 193.723 278.789 193.854L278.243 195.058C278.122 194.937 277.926 194.834 277.655 194.75C277.394 194.657 277.1 194.61 276.773 194.61C276.111 194.61 275.779 194.811 275.779 195.212C275.779 195.436 275.868 195.609 276.045 195.73C276.223 195.842 276.512 195.968 276.913 196.108C276.951 196.117 277.095 196.169 277.347 196.262C277.945 196.495 278.388 196.761 278.677 197.06C278.967 197.359 279.111 197.741 279.111 198.208C279.111 198.843 278.869 199.323 278.383 199.65C277.907 199.977 277.301 200.14 276.563 200.14ZM280.808 189.71H282.306V200H280.808V189.71ZM287.466 200.14C286.7 200.14 286.061 199.991 285.548 199.692C285.034 199.384 284.656 198.978 284.414 198.474C284.171 197.961 284.05 197.401 284.05 196.794C284.05 196.113 284.19 195.515 284.47 195.002C284.759 194.489 285.156 194.097 285.66 193.826C286.164 193.546 286.733 193.406 287.368 193.406C288.357 193.406 289.09 193.681 289.566 194.232C290.051 194.773 290.294 195.539 290.294 196.528C290.294 196.78 290.28 197.041 290.252 197.312H285.632C285.734 197.881 285.935 198.292 286.234 198.544C286.542 198.796 286.966 198.922 287.508 198.922C287.956 198.922 288.324 198.885 288.614 198.81C288.903 198.735 289.169 198.633 289.412 198.502L289.874 199.58C289.64 199.729 289.323 199.86 288.922 199.972C288.52 200.084 288.035 200.14 287.466 200.14ZM288.824 196.262C288.833 195.683 288.707 195.277 288.446 195.044C288.184 194.801 287.811 194.68 287.326 194.68C286.346 194.68 285.781 195.207 285.632 196.262H288.824ZM297.13 197.522H295.66V196.206H297.368L297.816 193.714H296.192V192.412H298.068L298.516 189.892H299.958L299.496 192.412H301.652L302.114 189.892H303.542L303.08 192.412H304.592V193.714H302.842L302.38 196.206H304.06V197.522H302.156L301.708 199.972H300.266L300.714 197.522H298.572L298.124 199.972H296.682L297.13 197.522ZM300.952 196.206L301.414 193.714H299.258L298.81 196.206H300.952ZM309.816 200.21C309.218 200.21 308.616 200.126 308.01 199.958C307.412 199.781 306.978 199.557 306.708 199.286L307.366 197.956C307.646 198.18 308 198.376 308.43 198.544C308.859 198.703 309.298 198.782 309.746 198.782C311.342 198.782 312.14 198.133 312.14 196.836C312.14 196.285 311.92 195.842 311.482 195.506C311.052 195.17 310.469 195.002 309.732 195.002C309.218 195.002 308.784 195.03 308.43 195.086L311.006 191.082H307.142V189.71H313.792L310.88 193.868C311.468 193.887 311.986 194.027 312.434 194.288C312.891 194.549 313.241 194.895 313.484 195.324C313.726 195.744 313.847 196.211 313.847 196.724C313.847 197.396 313.689 197.998 313.372 198.53C313.054 199.053 312.592 199.463 311.986 199.762C311.379 200.061 310.656 200.21 309.816 200.21Z" fill="black"/>
<path d="M361.29 192.76L362.42 192.44V200H361.29V192.76ZM366.601 191.73H367.571L365.411 200.92H364.441L366.601 191.73ZM369.601 192.76L370.731 192.44V200H369.601V192.76Z" fill="black"/>
<path d="M451.624 191.301C452.36 191.301 452.981 191.451 453.489 191.75C454.004 192.049 454.394 192.456 454.661 192.971C454.935 193.479 455.071 194.055 455.071 194.699C455.071 195.344 454.935 195.923 454.661 196.438C454.394 196.945 454.004 197.349 453.489 197.648C452.981 197.948 452.36 198.098 451.624 198.098C451.175 198.098 450.761 198.075 450.384 198.029C450.006 197.984 449.619 197.925 449.222 197.854V191.545C449.619 191.473 450.006 191.415 450.384 191.369C450.761 191.324 451.175 191.301 451.624 191.301ZM451.624 192.131C451.39 192.131 451.139 192.141 450.872 192.16C450.605 192.173 450.348 192.196 450.101 192.229V197.17C450.348 197.196 450.605 197.219 450.872 197.238C451.139 197.258 451.39 197.268 451.624 197.268C452.151 197.268 452.604 197.157 452.981 196.936C453.366 196.708 453.659 196.402 453.86 196.018C454.069 195.627 454.173 195.188 454.173 194.699C454.173 194.211 454.069 193.775 453.86 193.391C453.659 193 453.366 192.694 452.981 192.473C452.604 192.245 452.151 192.131 451.624 192.131ZM458.597 193.02C459.091 193.02 459.531 193.137 459.915 193.371C460.299 193.605 460.599 193.918 460.813 194.309C461.035 194.699 461.146 195.126 461.146 195.588C461.146 196.05 461.035 196.477 460.813 196.867C460.599 197.251 460.299 197.561 459.915 197.795C459.531 198.029 459.091 198.146 458.597 198.146C458.102 198.146 457.662 198.029 457.278 197.795C456.894 197.561 456.591 197.251 456.37 196.867C456.155 196.477 456.048 196.05 456.048 195.588C456.048 195.126 456.155 194.699 456.37 194.309C456.591 193.918 456.894 193.605 457.278 193.371C457.662 193.137 458.102 193.02 458.597 193.02ZM458.597 193.801C458.252 193.801 457.949 193.885 457.688 194.055C457.428 194.217 457.226 194.436 457.083 194.709C456.946 194.976 456.878 195.269 456.878 195.588C456.878 195.9 456.946 196.193 457.083 196.467C457.226 196.734 457.428 196.952 457.688 197.121C457.949 197.284 458.252 197.365 458.597 197.365C458.948 197.365 459.251 197.284 459.505 197.121C459.765 196.952 459.964 196.734 460.101 196.467C460.244 196.193 460.315 195.9 460.315 195.588C460.315 195.269 460.244 194.976 460.101 194.709C459.964 194.436 459.765 194.217 459.505 194.055C459.251 193.885 458.948 193.801 458.597 193.801ZM463.265 193.117V193.889C463.369 193.758 463.502 193.628 463.665 193.498C463.828 193.361 464.01 193.247 464.212 193.156C464.42 193.065 464.635 193.02 464.856 193.02C465.188 193.02 465.491 193.094 465.765 193.244C466.038 193.387 466.256 193.609 466.419 193.908C466.582 194.201 466.663 194.572 466.663 195.021V198H465.862L465.853 195.1C465.853 194.676 465.758 194.354 465.569 194.133C465.387 193.911 465.104 193.801 464.72 193.801C464.459 193.801 464.199 193.898 463.938 194.094C463.685 194.283 463.46 194.504 463.265 194.758V198H462.464V193.117H463.265ZM470.188 193.02C470.69 193.02 471.106 193.124 471.438 193.332C471.771 193.54 472.018 193.824 472.181 194.182C472.35 194.54 472.435 194.943 472.435 195.393V195.871H468.685C468.724 196.145 468.818 196.395 468.968 196.623C469.118 196.851 469.313 197.033 469.554 197.17C469.795 197.3 470.071 197.365 470.384 197.365C470.735 197.365 471.064 197.277 471.37 197.102C471.676 196.919 471.933 196.721 472.142 196.506L472.132 197.375C472.041 197.486 471.904 197.603 471.722 197.727C471.546 197.844 471.341 197.941 471.106 198.02C470.879 198.104 470.638 198.146 470.384 198.146C469.889 198.146 469.45 198.029 469.065 197.795C468.681 197.561 468.379 197.251 468.157 196.867C467.942 196.477 467.835 196.05 467.835 195.588C467.835 195.126 467.936 194.699 468.138 194.309C468.34 193.918 468.616 193.605 468.968 193.371C469.326 193.137 469.733 193.02 470.188 193.02ZM470.188 193.801C469.785 193.801 469.453 193.938 469.192 194.211C468.932 194.478 468.769 194.803 468.704 195.188H471.644C471.611 194.868 471.52 194.608 471.37 194.406C471.227 194.204 471.051 194.055 470.843 193.957C470.634 193.853 470.416 193.801 470.188 193.801ZM474.788 191.457V195.852H473.987V191.457H474.788ZM474.388 196.809C474.576 196.809 474.736 196.877 474.866 197.014C475.003 197.144 475.071 197.303 475.071 197.492C475.071 197.674 475.003 197.834 474.866 197.971C474.736 198.107 474.576 198.176 474.388 198.176C474.199 198.176 474.036 198.107 473.899 197.971C473.769 197.834 473.704 197.674 473.704 197.492C473.704 197.303 473.769 197.144 473.899 197.014C474.036 196.877 474.199 196.809 474.388 196.809Z" fill="#16D513"/>
<path d="M27.092 239.71H29.71C31.1847 239.71 32.1647 239.957 32.65 240.452C33.1353 240.947 33.378 241.544 33.378 242.244C33.378 242.711 33.2753 243.154 33.07 243.574C32.8647 243.985 32.538 244.293 32.09 244.498C32.7527 244.666 33.238 244.96 33.546 245.38C33.8633 245.8 34.022 246.295 34.022 246.864C34.022 247.461 33.9287 247.984 33.742 248.432C33.5553 248.88 33.168 249.253 32.58 249.552C31.992 249.851 31.1427 250 30.032 250H27.092V239.71ZM29.962 244.078C30.6247 244.078 31.096 243.919 31.376 243.602C31.656 243.275 31.796 242.865 31.796 242.37C31.796 241.483 31.1613 241.04 29.892 241.04H28.632V244.078H29.962ZM30.242 248.684C31.0913 248.684 31.6607 248.516 31.95 248.18C32.2487 247.835 32.398 247.401 32.398 246.878C32.398 246.383 32.23 246.001 31.894 245.73C31.558 245.459 31.0493 245.324 30.368 245.324H28.632V248.684H30.242ZM35.7157 243.574H37.2277V244.834C37.377 244.405 37.6197 244.059 37.9557 243.798C38.2917 243.537 38.6743 243.406 39.1037 243.406C39.4023 243.406 39.6077 243.434 39.7197 243.49L39.5097 245.016C39.4257 244.96 39.2437 244.932 38.9637 244.932C38.525 244.932 38.1237 245.072 37.7597 245.352C37.405 245.632 37.2277 246.08 37.2277 246.696V250H35.7157V243.574ZM43.8269 250.14C43.0616 250.14 42.4223 249.991 41.9089 249.692C41.3956 249.384 41.0176 248.978 40.7749 248.474C40.5323 247.961 40.4109 247.401 40.4109 246.794C40.4109 246.113 40.5509 245.515 40.8309 245.002C41.1203 244.489 41.5169 244.097 42.0209 243.826C42.5249 243.546 43.0943 243.406 43.7289 243.406C44.7183 243.406 45.4509 243.681 45.9269 244.232C46.4123 244.773 46.6549 245.539 46.6549 246.528C46.6549 246.78 46.6409 247.041 46.6129 247.312H41.9929C42.0956 247.881 42.2963 248.292 42.5949 248.544C42.9029 248.796 43.3276 248.922 43.8689 248.922C44.3169 248.922 44.6856 248.885 44.9749 248.81C45.2643 248.735 45.5303 248.633 45.7729 248.502L46.2349 249.58C46.0016 249.729 45.6843 249.86 45.2829 249.972C44.8816 250.084 44.3963 250.14 43.8269 250.14ZM45.1849 246.262C45.1943 245.683 45.0683 245.277 44.8069 245.044C44.5456 244.801 44.1723 244.68 43.6869 244.68C42.7069 244.68 42.1423 245.207 41.9929 246.262H45.1849ZM51.0821 250.14C50.5034 250.14 49.9668 250.005 49.4721 249.734C48.9868 249.454 48.5948 249.062 48.2961 248.558C48.0068 248.045 47.8621 247.447 47.8621 246.766C47.8621 246.094 47.9881 245.506 48.2401 245.002C48.5014 244.498 48.8701 244.106 49.3461 243.826C49.8221 243.546 50.3821 243.406 51.0261 243.406C51.3994 243.406 51.7494 243.471 52.0761 243.602C52.4028 243.733 52.6781 243.896 52.9021 244.092C53.1261 244.279 53.2754 244.465 53.3501 244.652L53.3781 243.574H54.8201V250H53.3921L53.3641 248.866C53.2054 249.202 52.9161 249.501 52.4961 249.762C52.0761 250.014 51.6048 250.14 51.0821 250.14ZM51.3341 248.88C51.8661 248.88 52.3141 248.698 52.6781 248.334C53.0421 247.961 53.2241 247.475 53.2241 246.878V246.78C53.2241 246.379 53.1401 246.019 52.9721 245.702C52.8041 245.385 52.5754 245.137 52.2861 244.96C51.9968 244.783 51.6794 244.694 51.3341 244.694C50.7368 244.694 50.2748 244.89 49.9481 245.282C49.6214 245.665 49.4581 246.164 49.4581 246.78C49.4581 247.405 49.6168 247.914 49.9341 248.306C50.2608 248.689 50.7274 248.88 51.3341 248.88ZM59.6954 250.14C59.1167 250.14 58.58 250.005 58.0854 249.734C57.6 249.454 57.208 249.062 56.9094 248.558C56.62 248.045 56.4754 247.447 56.4754 246.766C56.4754 245.749 56.76 244.937 57.3294 244.33C57.8987 243.714 58.6687 243.406 59.6394 243.406C60.1807 243.406 60.6754 243.541 61.1234 243.812C61.5714 244.073 61.8747 244.391 62.0334 244.764L61.9634 243.672V239.71H63.4474V250H62.0054L61.9774 248.866C61.8187 249.202 61.5294 249.501 61.1094 249.762C60.6894 250.014 60.218 250.14 59.6954 250.14ZM59.9474 248.866C60.4794 248.866 60.9274 248.684 61.2914 248.32C61.6554 247.947 61.8374 247.461 61.8374 246.864V246.766C61.8374 246.365 61.7534 246.005 61.5854 245.688C61.4174 245.371 61.1887 245.123 60.8994 244.946C60.61 244.769 60.2927 244.68 59.9474 244.68C59.35 244.68 58.888 244.876 58.5614 245.268C58.2347 245.651 58.0714 246.15 58.0714 246.766C58.0714 247.391 58.23 247.9 58.5474 248.292C58.874 248.675 59.3407 248.866 59.9474 248.866Z" fill="black"/>
<path d="M165.894 250.14C164.877 250.14 163.967 249.907 163.164 249.44C162.361 248.973 161.731 248.334 161.274 247.522C160.826 246.701 160.602 245.781 160.602 244.764C160.602 243.775 160.831 242.883 161.288 242.09C161.745 241.297 162.38 240.676 163.192 240.228C164.004 239.78 164.919 239.556 165.936 239.556C166.487 239.556 166.981 239.607 167.42 239.71C167.868 239.803 168.232 239.915 168.512 240.046C168.792 240.167 168.983 240.275 169.086 240.368L168.47 241.684C167.891 241.217 167.037 240.984 165.908 240.984C165.161 240.984 164.513 241.147 163.962 241.474C163.411 241.801 162.991 242.244 162.702 242.804C162.413 243.364 162.268 243.989 162.268 244.68C162.268 245.464 162.422 246.164 162.73 246.78C163.047 247.396 163.481 247.877 164.032 248.222C164.592 248.558 165.222 248.726 165.922 248.726C166.361 248.726 166.781 248.675 167.182 248.572C167.583 248.46 167.924 248.287 168.204 248.054V246.066H166.09V244.624H169.758V248.656C169.422 249.076 168.913 249.431 168.232 249.72C167.56 250 166.781 250.14 165.894 250.14ZM174.408 250.14C173.745 250.14 173.157 249.991 172.644 249.692C172.131 249.393 171.734 248.987 171.454 248.474C171.174 247.961 171.034 247.391 171.034 246.766C171.034 246.15 171.169 245.585 171.44 245.072C171.72 244.559 172.117 244.153 172.63 243.854C173.143 243.555 173.736 243.406 174.408 243.406C175.08 243.406 175.668 243.555 176.172 243.854C176.685 244.153 177.077 244.559 177.348 245.072C177.628 245.585 177.768 246.15 177.768 246.766C177.768 247.391 177.628 247.961 177.348 248.474C177.068 248.987 176.671 249.393 176.158 249.692C175.654 249.991 175.071 250.14 174.408 250.14ZM174.45 248.908C174.991 248.908 175.416 248.707 175.724 248.306C176.041 247.905 176.2 247.401 176.2 246.794C176.2 246.187 176.032 245.679 175.696 245.268C175.36 244.848 174.917 244.638 174.366 244.638C173.834 244.638 173.405 244.843 173.078 245.254C172.761 245.665 172.602 246.178 172.602 246.794C172.602 247.391 172.775 247.895 173.12 248.306C173.465 248.707 173.909 248.908 174.45 248.908ZM182.379 250.14C181.716 250.14 181.128 249.991 180.615 249.692C180.101 249.393 179.705 248.987 179.425 248.474C179.145 247.961 179.005 247.391 179.005 246.766C179.005 246.15 179.14 245.585 179.411 245.072C179.691 244.559 180.087 244.153 180.601 243.854C181.114 243.555 181.707 243.406 182.379 243.406C183.051 243.406 183.639 243.555 184.143 243.854C184.656 244.153 185.048 244.559 185.319 245.072C185.599 245.585 185.739 246.15 185.739 246.766C185.739 247.391 185.599 247.961 185.319 248.474C185.039 248.987 184.642 249.393 184.129 249.692C183.625 249.991 183.041 250.14 182.379 250.14ZM182.421 248.908C182.962 248.908 183.387 248.707 183.695 248.306C184.012 247.905 184.171 247.401 184.171 246.794C184.171 246.187 184.003 245.679 183.667 245.268C183.331 244.848 182.887 244.638 182.337 244.638C181.805 244.638 181.375 244.843 181.049 245.254C180.731 245.665 180.573 246.178 180.573 246.794C180.573 247.391 180.745 247.895 181.091 248.306C181.436 248.707 181.879 248.908 182.421 248.908ZM190.195 250.14C189.617 250.14 189.08 250.005 188.585 249.734C188.1 249.454 187.708 249.062 187.409 248.558C187.12 248.045 186.975 247.447 186.975 246.766C186.975 245.749 187.26 244.937 187.829 244.33C188.399 243.714 189.169 243.406 190.139 243.406C190.681 243.406 191.175 243.541 191.623 243.812C192.071 244.073 192.375 244.391 192.533 244.764L192.463 243.672V239.71H193.947V250H192.505L192.477 248.866C192.319 249.202 192.029 249.501 191.609 249.762C191.189 250.014 190.718 250.14 190.195 250.14ZM190.447 248.866C190.979 248.866 191.427 248.684 191.791 248.32C192.155 247.947 192.337 247.461 192.337 246.864V246.766C192.337 246.365 192.253 246.005 192.085 245.688C191.917 245.371 191.689 245.123 191.399 244.946C191.11 244.769 190.793 244.68 190.447 244.68C189.85 244.68 189.388 244.876 189.061 245.268C188.735 245.651 188.571 246.15 188.571 246.766C188.571 247.391 188.73 247.9 189.047 248.292C189.374 248.675 189.841 248.866 190.447 248.866ZM198.165 245.282L198.515 244.778L196.961 244.82H195.855V243.574H200.853L197.955 248.306L197.605 248.838L199.117 248.782L200.741 248.754V250H195.239L198.165 245.282ZM202.395 243.574H203.963V250H202.395V243.574ZM203.165 242.37C202.876 242.37 202.633 242.272 202.437 242.076C202.241 241.88 202.143 241.637 202.143 241.348C202.143 241.087 202.241 240.863 202.437 240.676C202.633 240.489 202.876 240.396 203.165 240.396C203.445 240.396 203.683 240.489 203.879 240.676C204.075 240.863 204.173 241.087 204.173 241.348C204.173 241.637 204.075 241.88 203.879 242.076C203.692 242.272 203.454 242.37 203.165 242.37ZM209.095 250.14C208.329 250.14 207.69 249.991 207.177 249.692C206.663 249.384 206.285 248.978 206.043 248.474C205.8 247.961 205.679 247.401 205.679 246.794C205.679 246.113 205.819 245.515 206.099 245.002C206.388 244.489 206.785 244.097 207.289 243.826C207.793 243.546 208.362 243.406 208.997 243.406C209.986 243.406 210.719 243.681 211.195 244.232C211.68 244.773 211.923 245.539 211.923 246.528C211.923 246.78 211.909 247.041 211.881 247.312H207.261C207.363 247.881 207.564 248.292 207.863 248.544C208.171 248.796 208.595 248.922 209.137 248.922C209.585 248.922 209.953 248.885 210.243 248.81C210.532 248.735 210.798 248.633 211.041 248.502L211.503 249.58C211.269 249.729 210.952 249.86 210.551 249.972C210.149 250.084 209.664 250.14 209.095 250.14ZM210.453 246.262C210.462 245.683 210.336 245.277 210.075 245.044C209.813 244.801 209.44 244.68 208.955 244.68C207.975 244.68 207.41 245.207 207.261 246.262H210.453ZM215.72 250.14C215.272 250.14 214.805 250.084 214.32 249.972C213.844 249.851 213.503 249.711 213.298 249.552L213.802 248.362C214.362 248.754 215.001 248.95 215.72 248.95C216.438 248.95 216.798 248.74 216.798 248.32C216.798 248.133 216.723 247.989 216.574 247.886C216.424 247.783 216.158 247.662 215.776 247.522L215.244 247.326C214.684 247.102 214.24 246.836 213.914 246.528C213.587 246.211 213.424 245.795 213.424 245.282C213.424 244.694 213.652 244.237 214.11 243.91C214.576 243.574 215.197 243.406 215.972 243.406C216.354 243.406 216.728 243.448 217.092 243.532C217.465 243.616 217.75 243.723 217.946 243.854L217.4 245.058C217.278 244.937 217.082 244.834 216.812 244.75C216.55 244.657 216.256 244.61 215.93 244.61C215.267 244.61 214.936 244.811 214.936 245.212C214.936 245.436 215.024 245.609 215.202 245.73C215.379 245.842 215.668 245.968 216.07 246.108C216.107 246.117 216.252 246.169 216.504 246.262C217.101 246.495 217.544 246.761 217.834 247.06C218.123 247.359 218.268 247.741 218.268 248.208C218.268 248.843 218.025 249.323 217.54 249.65C217.064 249.977 216.457 250.14 215.72 250.14Z" fill="black"/>
<path d="M264.858 239.696L269.814 250H268.008L267.126 247.984H262.408L261.526 250H259.776L264.704 239.696H264.858ZM264.158 244.078L263.038 246.57H266.51L265.404 244.092L264.802 242.678H264.774L264.158 244.078ZM270.69 243.574H272.258V250H270.69V243.574ZM271.46 242.37C271.171 242.37 270.928 242.272 270.732 242.076C270.536 241.88 270.438 241.637 270.438 241.348C270.438 241.087 270.536 240.863 270.732 240.676C270.928 240.489 271.171 240.396 271.46 240.396C271.74 240.396 271.978 240.489 272.174 240.676C272.37 240.863 272.468 241.087 272.468 241.348C272.468 241.637 272.37 241.88 272.174 242.076C271.987 242.272 271.749 242.37 271.46 242.37ZM276.563 250.14C276.115 250.14 275.649 250.084 275.163 249.972C274.687 249.851 274.347 249.711 274.141 249.552L274.645 248.362C275.205 248.754 275.845 248.95 276.563 248.95C277.282 248.95 277.641 248.74 277.641 248.32C277.641 248.133 277.567 247.989 277.417 247.886C277.268 247.783 277.002 247.662 276.619 247.522L276.087 247.326C275.527 247.102 275.084 246.836 274.757 246.528C274.431 246.211 274.267 245.795 274.267 245.282C274.267 244.694 274.496 244.237 274.953 243.91C275.42 243.574 276.041 243.406 276.815 243.406C277.198 243.406 277.571 243.448 277.935 243.532C278.309 243.616 278.593 243.723 278.789 243.854L278.243 245.058C278.122 244.937 277.926 244.834 277.655 244.75C277.394 244.657 277.1 244.61 276.773 244.61C276.111 244.61 275.779 244.811 275.779 245.212C275.779 245.436 275.868 245.609 276.045 245.73C276.223 245.842 276.512 245.968 276.913 246.108C276.951 246.117 277.095 246.169 277.347 246.262C277.945 246.495 278.388 246.761 278.677 247.06C278.967 247.359 279.111 247.741 279.111 248.208C279.111 248.843 278.869 249.323 278.383 249.65C277.907 249.977 277.301 250.14 276.563 250.14ZM280.808 239.71H282.306V250H280.808V239.71ZM287.466 250.14C286.7 250.14 286.061 249.991 285.548 249.692C285.034 249.384 284.656 248.978 284.414 248.474C284.171 247.961 284.05 247.401 284.05 246.794C284.05 246.113 284.19 245.515 284.47 245.002C284.759 244.489 285.156 244.097 285.66 243.826C286.164 243.546 286.733 243.406 287.368 243.406C288.357 243.406 289.09 243.681 289.566 244.232C290.051 244.773 290.294 245.539 290.294 246.528C290.294 246.78 290.28 247.041 290.252 247.312H285.632C285.734 247.881 285.935 248.292 286.234 248.544C286.542 248.796 286.966 248.922 287.508 248.922C287.956 248.922 288.324 248.885 288.614 248.81C288.903 248.735 289.169 248.633 289.412 248.502L289.874 249.58C289.64 249.729 289.323 249.86 288.922 249.972C288.52 250.084 288.035 250.14 287.466 250.14ZM288.824 246.262C288.833 245.683 288.707 245.277 288.446 245.044C288.184 244.801 287.811 244.68 287.326 244.68C286.346 244.68 285.781 245.207 285.632 246.262H288.824ZM297.13 247.522H295.66V246.206H297.368L297.816 243.714H296.192V242.412H298.068L298.516 239.892H299.958L299.496 242.412H301.652L302.114 239.892H303.542L303.08 242.412H304.592V243.714H302.842L302.38 246.206H304.06V247.522H302.156L301.708 249.972H300.266L300.714 247.522H298.572L298.124 249.972H296.682L297.13 247.522ZM300.952 246.206L301.414 243.714H299.258L298.81 246.206H300.952ZM307.744 239.864L309.326 239.416V250H307.744V239.864ZM316.453 247.424H311.749L314.703 239.36L316.159 239.906L313.933 245.954H316.453L316.537 243.616H318.091V245.954H319.519V247.424H318.091V250H316.453V247.424Z" fill="black"/>
<path d="M362.77 250.15C362.343 250.15 361.913 250.09 361.48 249.97C361.053 249.843 360.743 249.683 360.55 249.49L361.02 248.54C361.22 248.7 361.473 248.84 361.78 248.96C362.087 249.073 362.4 249.13 362.72 249.13C363.86 249.13 364.43 248.667 364.43 247.74C364.43 247.347 364.273 247.03 363.96 246.79C363.653 246.55 363.237 246.43 362.71 246.43C362.343 246.43 362.033 246.45 361.78 246.49L363.62 243.63H360.86V242.65H365.61L363.53 245.62C363.95 245.633 364.32 245.733 364.64 245.92C364.967 246.107 365.217 246.353 365.39 246.66C365.563 246.96 365.65 247.293 365.65 247.66C365.65 248.14 365.537 248.57 365.31 248.95C365.083 249.323 364.753 249.617 364.32 249.83C363.887 250.043 363.37 250.15 362.77 250.15ZM369.267 241.73H370.237L368.077 250.92H367.107L369.267 241.73ZM373.957 250.15C373.517 250.15 373.11 250.093 372.737 249.98C372.37 249.867 372.06 249.7 371.807 249.48L372.317 248.54C372.463 248.667 372.68 248.793 372.967 248.92C373.253 249.04 373.573 249.1 373.927 249.1C374.38 249.1 374.75 248.973 375.037 248.72C375.33 248.46 375.477 248.11 375.477 247.67C375.477 247.257 375.343 246.917 375.077 246.65C374.817 246.377 374.393 246.24 373.807 246.24C373.507 246.24 373.193 246.267 372.867 246.32C372.54 246.373 372.31 246.437 372.177 246.51L372.327 242.65H376.097V243.63H373.417L373.317 245.37C373.51 245.317 373.79 245.29 374.157 245.29C374.93 245.29 375.537 245.493 375.977 245.9C376.423 246.3 376.647 246.853 376.647 247.56C376.647 248.067 376.54 248.517 376.327 248.91C376.12 249.303 375.813 249.61 375.407 249.83C375 250.043 374.517 250.15 373.957 250.15Z" fill="black"/>
<rect x="427" y="232" width="70" height="25" rx="3" fill="#4054BE"/>
<path d="M442.635 241.457L445.691 248H444.637L443.953 246.438H440.887L440.193 248H439.139L442.195 241.457H442.635ZM442.43 242.941L441.248 245.607H443.592L442.43 242.941ZM451.033 240.969V248H450.232V247.17C450.063 247.43 449.832 247.658 449.539 247.854C449.253 248.049 448.924 248.146 448.553 248.146C448.136 248.146 447.755 248.042 447.41 247.834C447.065 247.619 446.788 247.323 446.58 246.945C446.378 246.568 446.277 246.132 446.277 245.637C446.277 245.096 446.378 244.631 446.58 244.24C446.788 243.85 447.072 243.55 447.43 243.342C447.788 243.127 448.188 243.02 448.631 243.02C448.911 243.02 449.194 243.088 449.48 243.225C449.773 243.355 450.024 243.537 450.232 243.771V240.969H451.033ZM448.777 243.82C448.426 243.82 448.126 243.908 447.879 244.084C447.632 244.253 447.439 244.475 447.303 244.748C447.173 245.021 447.107 245.318 447.107 245.637C447.107 245.949 447.173 246.239 447.303 246.506C447.433 246.766 447.615 246.975 447.85 247.131C448.09 247.287 448.367 247.365 448.68 247.365C448.979 247.365 449.246 247.287 449.48 247.131C449.715 246.975 449.9 246.76 450.037 246.486C450.174 246.206 450.239 245.894 450.232 245.549L450.223 244.611C450.021 244.357 449.803 244.162 449.568 244.025C449.34 243.889 449.077 243.82 448.777 243.82ZM457.107 240.969V248H456.307V247.17C456.137 247.43 455.906 247.658 455.613 247.854C455.327 248.049 454.998 248.146 454.627 248.146C454.21 248.146 453.829 248.042 453.484 247.834C453.139 247.619 452.863 247.323 452.654 246.945C452.452 246.568 452.352 246.132 452.352 245.637C452.352 245.096 452.452 244.631 452.654 244.24C452.863 243.85 453.146 243.55 453.504 243.342C453.862 243.127 454.262 243.02 454.705 243.02C454.985 243.02 455.268 243.088 455.555 243.225C455.848 243.355 456.098 243.537 456.307 243.771V240.969H457.107ZM454.852 243.82C454.5 243.82 454.201 243.908 453.953 244.084C453.706 244.253 453.514 244.475 453.377 244.748C453.247 245.021 453.182 245.318 453.182 245.637C453.182 245.949 453.247 246.239 453.377 246.506C453.507 246.766 453.689 246.975 453.924 247.131C454.165 247.287 454.441 247.365 454.754 247.365C455.053 247.365 455.32 247.287 455.555 247.131C455.789 246.975 455.975 246.76 456.111 246.486C456.248 246.206 456.313 245.894 456.307 245.549L456.297 244.611C456.095 244.357 455.877 244.162 455.643 244.025C455.415 243.889 455.151 243.82 454.852 243.82ZM465.027 247.17V248H461.941V247.17H463.045V242.287H461.941V241.457H465.027V242.287H463.924V247.17H465.027ZM468.279 241.711V243.117H469.705V243.869H468.279V246.73C468.279 246.932 468.331 247.092 468.436 247.209C468.54 247.326 468.699 247.385 468.914 247.385C469.109 247.385 469.272 247.362 469.402 247.316C469.533 247.264 469.646 247.209 469.744 247.15V247.805C469.614 247.909 469.474 247.99 469.324 248.049C469.181 248.114 468.986 248.146 468.738 248.146C468.322 248.146 468.006 248.023 467.791 247.775C467.583 247.521 467.479 247.186 467.479 246.77V243.869H466.541V243.635C466.86 243.492 467.127 243.257 467.342 242.932C467.557 242.6 467.745 242.193 467.908 241.711H468.279ZM473.172 243.02C473.673 243.02 474.09 243.124 474.422 243.332C474.754 243.54 475.001 243.824 475.164 244.182C475.333 244.54 475.418 244.943 475.418 245.393V245.871H471.668C471.707 246.145 471.801 246.395 471.951 246.623C472.101 246.851 472.296 247.033 472.537 247.17C472.778 247.3 473.055 247.365 473.367 247.365C473.719 247.365 474.048 247.277 474.354 247.102C474.66 246.919 474.917 246.721 475.125 246.506L475.115 247.375C475.024 247.486 474.887 247.603 474.705 247.727C474.529 247.844 474.324 247.941 474.09 248.02C473.862 248.104 473.621 248.146 473.367 248.146C472.872 248.146 472.433 248.029 472.049 247.795C471.665 247.561 471.362 247.251 471.141 246.867C470.926 246.477 470.818 246.05 470.818 245.588C470.818 245.126 470.919 244.699 471.121 244.309C471.323 243.918 471.6 243.605 471.951 243.371C472.309 243.137 472.716 243.02 473.172 243.02ZM473.172 243.801C472.768 243.801 472.436 243.938 472.176 244.211C471.915 244.478 471.753 244.803 471.688 245.188H474.627C474.594 244.868 474.503 244.608 474.354 244.406C474.21 244.204 474.035 244.055 473.826 243.957C473.618 243.853 473.4 243.801 473.172 243.801ZM477.537 243.117V243.742C477.693 243.566 477.892 243.404 478.133 243.254C478.38 243.098 478.67 243.02 479.002 243.02C479.354 243.02 479.682 243.104 479.988 243.273C480.294 243.436 480.529 243.684 480.691 244.016C480.919 243.742 481.167 243.508 481.434 243.312C481.701 243.117 482.013 243.02 482.371 243.02C482.703 243.02 483.012 243.094 483.299 243.244C483.592 243.387 483.826 243.609 484.002 243.908C484.184 244.201 484.275 244.572 484.275 245.021V248H483.475L483.465 245.1C483.465 244.676 483.354 244.354 483.133 244.133C482.918 243.911 482.618 243.801 482.234 243.801C481.954 243.801 481.71 243.889 481.502 244.064C481.294 244.24 481.095 244.445 480.906 244.68V248H480.105L480.096 245.1C480.096 244.676 479.985 244.354 479.764 244.133C479.549 243.911 479.249 243.801 478.865 243.801C478.598 243.801 478.354 243.879 478.133 244.035C477.918 244.191 477.719 244.38 477.537 244.602V248H476.736V243.117H477.537Z" fill="white"/>
<defs>
<filter id="filter0_d" x="0" y="0" width="524" height="287" filterUnits="userSpaceOnUse" color-interpolation-filters="sRGB">
<feFlood flood-opacity="0" result="BackgroundImageFix"/>
<feColorMatrix in="SourceAlpha" type="matrix" values="0 0 0 0 0 0 0 0 0 0 0 0 0 0 0 0 0 0 127 0"/>
<feMorphology radius="2" operator="dilate" in="SourceAlpha" result="effect1_dropShadow"/>
<feOffset dy="4"/>
<feGaussianBlur stdDeviation="5"/>
<feColorMatrix type="matrix" values="0 0 0 0 0 0 0 0 0 0 0 0 0 0 0 0 0 0 0.25 0"/>
<feBlend mode="normal" in2="BackgroundImageFix" result="effect1_dropShadow"/>
<feBlend mode="normal" in="SourceGraphic" in2="effect1_dropShadow" result="shape"/>
</filter>
</defs>
</svg>
